{

	"token": {
		"User Manual":"यूजर मैन्युअल",
		"Know Your User Id & Password":"यूजर नेम व पासवर्ड पता करने के लिए क्लिक करें",
		"About us":"हमारे बारे में ",
		"Job Seeker":"आवेदक",
		"Job Seeker Services":"आवेदक के लिए",
		"Register Your Self":"पंजीयन करने के लिए क्लिक करें",
	"For Updation in Qualification":"योग्यता इत्यादि में परिवर्तन के लिए क्लिक करें",
	"Know User Name & Password":"यूजर नेम व पासवर्ड जानने करने के लिए क्लिक करें",
	"Renew Your Registration Number":"पंजीयन का नवीनीकरण करने के लिए क्लिक करें",
    "Transfer Your Registration Number":"पंजीयन का ट्रांसफर करने के लिए क्लिक करें",
      "Contact us":"संपर्क करें",
     "Privacy Policy":"गोपनीयता नीति",
	 "FAQs":" अक्सर पूछे जाने वाले प्रश्न",
	 "Login":"लॉगिन करें",
	 "Login ":"लॉगिन करें क्लिक करें",
	 "Employer":"नियोजक",
	 "Register":"पंजीयन",
	 "E-mail":"ईमेल",
	 "Renewal":"नवीकरण",
	 "Transfer":"स्थानांतरण",
	 "ID Related":"आईडी संबंधी",
	 "Job Related":"जॉब  संबंधित",
	 "Career Opportunities":"कैरियर अवसर",
	 "Other":"अन्य",

	 "E-mail Support":"ई-मेल सपोर्ट ",
	 "Name":"उपयोगकर्ता का नाम",
	 "Your Email":"आपका ई-मेल",
	 "Subject-Body":"विषय",
	 "To":"प्रति",
	 "Mobile":"मोबाइल",
	 "Problem Description":"समस्या विवरण",
		"Employer Services ":"नियोजक के लिए",
		"Employer Register":"पंजीयन करने के लिए क्लिक करें",
		"Know Your Registration":"अपना पंजीयन नंबर जानने के लिए क्लिक करें",
		"Already Registered":"पूर्व पंजीकृत लॉगिन करने के लिए क्लिक करें",
		"ER-I":"ई आर -१",
		"ER-II":"ई आर -२",
		"Information For Job Fair":"जॉबफेयर की सूचना",
		"Job Seeker List":"आवेदको की सूची",
		"User Manual For Employer":"यूजर मैन्युअल",
		"Visitors Count: 46866463":"आगंतुकों की संख्या : 46866413",
		"Useful Web Links":"उपयोगी वेब लिंक",
		"Rojgar Aur Nirman":"रोजगार और निर्माण",
		"Indian Army":"भारतीय सेना",
		"Employment News":"रोजगार समाचार",
		"MP Public Service Commission":"मध्य प्रदेश लोक सेवा आयोग",
		"Industry Wing":"उद्योग विंग",
		"MP Professional Examination Board":"मध्य प्रदेश व्यावसायिक परीक्षा मंडल",
		"Feedback":"फीडबैक",
		"Competitive Exams at Glance":"एक नज़र में प्रतियोगी परीक्षा",
		"Union Public Service":"संघ लोक सेवा आयोग",
		"For Job Seeker":"आवेदक के लिए ",
		"Know Your NCS Registration No. and Login Details":"एनसीएस पंजीयन नंबर एवं लॉगिन विवरण",
		"User Manual For Job Seeker":"आवेदक के लिए यूजर मैन्युअल",
		"National Career Service":"राष्ट्रीय कॅरियर सेवा",
		"National Career Service For Jobseeker":"राष्ट्रीय कॅरियर सेवा",
		"For Employer":"नियोजक के लिए",
		"Job Listing":"जॉब की सूची",
		"National Career Service For Employer":"राष्ट्रीय कॅरियर सेवा",
		"Property Search":"संपत्ति",
		"Location":"स्थान",
		"Home":"होम",
		"Office Address":"कार्यालय का पता",
		"Get best matched jobs directly in your mail.":"अपने मेल में सर्वश्रेष्ठ मिलान वाली नौकरियां प्राप्त करें।",
"Get relevant job recommendations.":"प्रासंगिक नौकरी की सिफारिशें प्राप्त करें।",
"Showcase profile to top companies and consultants.":"शीर्ष कंपनियों और सलाहकारों को प्रोफ़ाइल दिखाएं।",
"Know application status on applied jobs.":"आवेदित पदों पर  आवेदन की स्थिति ज्ञात करें।",
"Allows Searching Job By Key Skills, Designations, and Companies.":"कुंजी कौशल, पदनाम और कंपनियों द्वारा नौकरी खोजने की अनुमति देता है।",
"New to MP Rojgar?":"आवेदक नया पंजीयन करने के लिए",

		"Transfer Registration":"पंजीयन का ट्रांसफर करने के लिए क्लिक करें",
		"Career Literature":"कॅरियर लिटरेचर",
"Company Secretary":"कंपनी सचिव",
"Career Information":"कॅरियर जानकारी",
"Carrer Guideline":" कॅरियर गाइडलाइन",
"Job Seeker Registration":"आवेदक पंजीयन",
"Visitor Count":"आगंतुकों की संख्या",
"Photo Gallery":"फोटो गैलरी",
"About Us":"हमारे बारे में",
"FAQ":"अक्सर पूछे जाने वाले प्रश्न",
"About Department":"विभागीय जानकारी ",
"Role of the Department":"विभाग की भूमिका ",
"Organizational Setup":"संगठनात्मक संरचना",
"Employment Offices":"रोजगार कार्यालय की सूची",
"MIS":"एम आई एस ",
"Statistics":"सांख्यिकीय जानकारी",
"Right to Information":"सूचना का अधिकार",
"Property Declaration":"अचल संपत्ति विवरण",
"Administrative Reports":"विभागीय वार्षिक प्रशासकीय प्रतिवेदन ",
"Circulars/Orders":"परिपत्र / आदेश",
"Person With Disability Information":"निःशक्तजनों की जानकारी",
"NCO Code Information":"एन सी ओ कोड की जानकारी",
"Act and Rules":"नियम एवं अधिनियम",
"Forms":"फॉर्म",
"Download Forms / Fonts":"डाउनलोड फॉर्म / फॉण्ट ",
"Vacancy Advertisement Portal":"वैकेन्सी एडवरटीजमेंट पोर्टल वैके",
"Job Opportunities":"रोजगार के अवसर",
"Skill Development Centers":"कौशल विकास केंद्र",
"Terms and Condition":"नियम व शर्तें",
"Disclaimer":"अस्वीकरण",
"Career couselling":"कॅरियर काउन्सलिंग",
"Career Counselling Scheme":"कॅरियर काउन्सलिंग योजना",
"Career Counselling QA":"कॅरियर काउन्सलिंग प्रश्न उत्तर ",
"Skill Development":"कौशल विकास",
"Self Employment":"स्व रोजगार",
"Self Employment scheme":"स्व रोजगार योजना",
"No application are accepting for unemployment allowance scheme Madhya Pradesh State Skill Development and Employment Generation Board neither provides appointment nor issues appointment letter in public/ private sector. If someone gets appointment letter on letterhead of Board then it is fake & False.":"बेरोजगारी भत्ता योजना के लिए कोई भी आवदेन प्राप्त नहीं किये जा गए है | मध्यप्रदेश राजय  कौशल विकास एवम रोजगार निर्माण बोर्ड शासकीय /निजी  क्षेत्र में न तो कोई नुयक्ति करता है और न ही कोई नुयक्ति जारी करता है |यदि कोई व्यक्ति बोर्ड के लेटर हेड पर नुयक्ति  पत्र प्राप्त करता है तो ये जाली एवम गलत है |",
"Lok Sewa Guarantee":"लोक सेवा गारंटी",
"Employee Corner":"विभागीय जानकारी",
"Job Fairs":"रोजगार मेला सूची",
"Services":"सेवाएं",
"Registration Number":"पंजीकरण संख्या",
"Please Complete Your Profile":"कृपया अपना प्रोफ़ाइल पूरा करें",
"Government EMP Department":"शासकीय ईएमपी विभाग",
"Placement Service Management":"प्लेसमेंट सेवा प्रबंधन",
"Placement Service Model":"प्लेसमेंट सेवा मॉडल",
"Buy Online":"ऑनलाइन खरीदो",
"Recruiters":"नियोक्ताओं",
"Key Account Manager":"मुख्य खाता प्रबंधक",
"Reporting & Dashboard":"रिपोर्टिंग और डैशबोर्ड",
"Companies":"कंपनियों",
"Job Seekers Section":"नौकरी चाहने वालों के लिए",
"Information":"जानकारी",
"SiteMap":"साइट मैप",
"Career Counselling":"कैरियर परामर्श",
"Career Counseling QA":"कैरियर परामर्श प्रश्न उत्तर ",
"Employer Registration":"नियोक्ता पंजीयन",
"Employer Section":"नियोक्ता के लिए",
"Job Seeker Login":"आवेदक लॉगिन",
"First Name":"प्रथम नाम ",
"Middle Name":"मध्य नाम",
"Last Name":"अंतिम नाम",
"Guardian/Father Name":"अभिभावक / पिता का नाम",
"Gender":"लिंग",
"District":"जिला",
"City":"शहर",
"Mobile Number":"मोबाइल नंबर",
"Email":"ईमेल",
"Aadhaar Card":"आधार कार्ड",
"Aadhar Number":"आधार नंबर",
"User Name":"उपयोगकर्ता का नाम",
"Password":"पासवर्ड",
"Confirm Password":"पासवर्ड फिर से दर्ज करें",
"REGISTER":"रजिस्टर",
"Please Enter The Text Below In Text Box":"प्रदर्शित संख्या दर्ज करें",
"Gallery":"फोटो गैलरी",
"Uploads":"अपलोड",
"Free Job Alert":"फ्री जॉब अलर्ट",
"No Registration Required":"कोई पंजीकरण आवश्यक नहीं है",
"CREATE JOB ALERT":"जौब अलर्ट बनाएं",
"Get an Email weekly, matching your criteria":"अपने मापदंड से मेल खाते हुए एक ईमेल साप्ताहिक प्राप्त करें",
"Upload Resume":"रिज्यूमे अपलोड करें",
"New to Mp Rojgar?":"आवेदक नया पंजीयन करने के लिए",
"New to this Portal":"नया पंजीयन करने के लिए",
"Register Now":"यहाँ क्लिक करें",
"Already a Member?":"पहले से पंजीकृत हैं?",
"Login Here":"लॉगिन करें",
"Tehsil":"तहसील",
"City/Village":"शहर/गांव",
"Jobs By Industry":"उद्योग द्वारा नौकरियां",
"Information Technology Jobs":"सूचना प्रौद्योगिकी नौकरियां",
"Recruitment/Employment Firms Jobs":"भर्ती / रोजगार फर्म नौकरी",
"Education/Training Jobs":"शिक्षा / प्रशिक्षण नौकरियां",
"Call Center Jobs":"कॉल सेंटर जॉब्स",
"BPO Jobs":"बीपीओ नौकरियां",
"Advanced Search":"उन्नत खोज",
"Create Job Alert":"जॉब अलर्ट बनाएं",
"Jobseekers FAQs":"नौकरीपेशा अक्सर पूछे जाने वाले प्रश्न",
"Browse Jobs":"नौकरियां ब्राउज़ करें",
"Government Jobs":"सरकारी नौकरियों",
"Browse Jobs by Designation":"पदनाम द्वारा नौकरियां ब्राउज़ करें",
"Browse Jobs by Location":"स्थान से नौकरियां ब्राउज़ करें",
"Browse Jobs by Company":"कंपनी द्वारा नौकरियां ब्राउज़ करें",
"Jobs by Company":"कंपनी वार पद",
"Jobs by City":"स्थान वार पद",
"Employment News.":"रोजगार समाचार।",
"Jobs by Designation":"पदवार अवसर",
"Please enter First Name":"कृपया प्रथम नाम दर्ज करें",
"Please enter Guardian/Father Name":"कृपया अभिभावक / पिता का नाम दर्ज करें",
"Please select Gender":"कृपया लिंग चुनें",
"Time:":"समय:",
"Please select District":"कृपया जिला चुनें",
"Please select Tehsil":"कृपया तहसील चुनें",
"Please select City/Village":"कृपया शहर/गांव चुनें",
"Please enter Mobile Number":"कृपया मोबाइल नंबर दर्ज करें",
"Please enter Email":"कृपया ईमेल दर्ज करें",
"Please enter correct Email":"कृपया सही ईमेल दर्ज करें",
"Please enter correct Mobile Number":"कृपया सही मोबाइल नंबर दर्ज करें",
"Please select Identification":"कृपया पहचान चुनें",
"Please enter Adhar Number":"कृपया आधार नंबर दर्ज करें",
"Please enter Pan Card Number":"कृपया पैन कार्ड नंबर दर्ज करें",
"Please enter Passport Number":"कृपया पासपोर्ट नंबर दर्ज करें",
"Please enter Driving License Number":"कृपया ड्राइविंग लाइसेंस नंबर दर्ज करें",
"Please select User Name":"कृपया उपयोगकर्ता नाम चुनें",
"Please enter Password":"कृप्या पास्वर्ड दर्ज करें",
"Password must contain atleast one letter, atleast one number, and be longer than 8 charaters":"पासवर्ड में कम से कम एक अक्षर होना चाहिए, एक नंबर कम से कम होना चाहिए, और 8 वर्णों से अधिक होना चाहिए",
"Password not matched":"पासवर्ड मिलान नहीं हुआ",
"Please enter Captcha":"कृपया कैप्चा दर्ज करें",
"TOLL FREE NO:":"टोल फ्री नं:",
"Toll Free No:":"टोल फ्री नं:",
"Developed by":"द्वारा विकसित",
"Upween India Private Limited":"अपवीन​ इंडिया प्राइवेट लिमिटेड",
"Please enter Last Name":"कृपया अंतिम नाम दर्ज करें",
"Please enter valid Adhar Number":"कृपया मान्य आधार नंबर दर्ज करें",
"Please enter valid Pan Card Number":"कृपया मान्य पैन कार्ड नंबर दर्ज करें",
"Please enter valid Passport Number":"कृपया मान्य पासपोर्ट नंबर दर्ज करें",
"Please enter Re-Password":"कृपया पुनः पासवर्ड दर्ज करें",
"Hello":"नमस्ते",
"Your Username & Password has been created successfully.":"आपका उपयोगकर्ता नाम और पासवर्ड सफलतापूर्वक बनाया गया है।",
"Please proceed for registration":"कृपया पंजीकरण के लिए आगे बढ़ें",
"Help & Support":"मदद एवं सहयोग",
"First Name must contain atleast 3 characters":"पहले नाम में कम से कम 3 अक्षर होने चाहिए",
"Last Name must contain atleast 3 characters":"अंतिम नाम में कम से कम 3 अक्षर होने चाहिए",
"Guardian/Father Name must contain atleast 3 characters":"अभिभावक / पिता का नाम कम से कम 3 वर्णों का होना चाहिए",
"E-mail:":"ईमेल:",
"Dashboard & Report":"डैशबोर्ड और रिपोर्ट",
"Email Support":"ई-मेल सपोर्ट",
"Chat Support":" चैट सपोर्ट",
"Audio Support":"ऑडियो सपोर्ट",
"Audio:Support":"टोल फ्री नंबर",
"Grievance and Resolution Desk":"शिकायत और समाधान डेस्क",
"Information of Differently abled Person":"दिव्यांग जनों की जानकारी",
"Download Forms/Fonts":"फॉर्म / फ़ॉन्ट्स डाउनलोड करें",
"Dashboard & Reports":"डैशबोर्ड और रिपोर्ट",
"Post your vacancy":"अपनी रिक्ति पोस्ट करें",
"Active Job Seekers":"आवेदकों की संख्या",
"Active Employers":"नियोजकों की संख्या",
"Employers":"नियोजक",
"Active Vacancies":"रिक्तियों की संख्या",
"Career Guidance":"कैरियर दिशानिर्देश",
"Jobseeker Login":"   जॉब सीकर लॉगिन",
"Jobseeker":"जॉब सीकर",
"Employer Login":"नियोजक लॉगिन",
"Office Login":"ऑफिस लॉगिन",
"Office Admin Login":"ऑफिस एडमिन लॉगिन",
"Email Id":" ईमेल आईडी",
"Forgot your password ?":"पासवर्ड भूल गए हैं",
"Forgot Password?":"पासवर्ड भूल गए",
"New User?":"नया उपयोगकर्ता?",
"Register Here":"यहां रजिस्टर करें ",
"Employer Feedback":"नियोजक फीडबैक",
"Counsellor Access":"काउंसलर एक्सेस",
"Access a Counsellor":"काउंसलर एक्सेस",
"Union Public Service Commission":"संघ लोक सेवा आयोग",
"Registered ID":"पंजीकृत आई.डी.",
"Your Name":"आपका नाम",
"Grievance Form":"शिकायत प्रपत्र",
"District Office":"जिला कार्यालय",
"Department":"विभाग",
"Type of Grievance":"शिकायत का प्रकार",
"Grievance Details":"शिकायत का विवरण",
"-----Or-----":"-----अथवा-----",
"Top Vacancies":"उपलब्ध अवसर",
"Walk-in":"साक्षात्कार",
"Top Employers":"प्रमुख नियोजक",
"Featured Jobs":"विशेष अवसर",
"Popular Searches":"लोकप्रिय खोज",
"Browse By Categories":"पदवार खोज",
"Browse By Location":"स्थानवार खोज",
"Useful Web Link":"उपयोगी वेब लिंक",
"Dashboard":"डैशबोर्ड",
"Applied jobs":"आवेदित पद",
"Saved jobs":"सेव किये गए अवसर",
"Job Detail":"नौकरी का विवरण",
"Recommended Job":"अनुशंसित पद",
"Print profile":"प्रोफाइल  प्रिंट करें",
"Update Profile":"प्रोफाइल अद्यतन करें",
"Browse Jobs by Top Designation":"शीर्ष पदनाम द्वारा नौकरियां ब्राउज़ करें",
"Exchange Name":"रोजगार कार्यालय",
"Personal Details":"व्यक्तिगत विवरण",
"Date of Birth":"जन्म तिथि",
"Domicile":"निवास",
"Permanent Address":"स्थाई पता",
"Pin":"पिन",
"Blood Group":"रक्त समूह",
"Marital Status":"वैवाहिक स्थिति",
"Category":"श्रेणी",
"Nationality":"राष्ट्रीयता",
"Religion":"धर्म",
"Sub-Caste":"उप जाति",
"Differently abled":"दिव्यांगता",
"Area":"क्षेत्र",
"Area Of Interest":"पंसदीदा क्षेत्र",
"Green Card":"ग्रीन कार्ड",
"Edit Profile":"प्रोफ़ाइल संपादित करें",
"Education":"शैक्षणिक योग्यता",
"Qualification":"योग्यता",
"Subject Group":"विषय समूह",
"University / Board":"विश्वविद्यालय / बोर्ड",
"Division":"डिवीजन",
"Percentage":"प्रतिशत",
"Passing Out Year":"उत्तीर्ण करने का वर्ष",
"Modify":"संशोधन",
"Delete":"विलोपन",
"Updated On":"संशोधित किया",
"Interested in Defense Services":"सेना में जाने के इच्छुक",
"Present Address":"वर्तमान पता",
"Is Permanent Address and Present Address is same?":"क्या स्थायी पता और वर्तमान पता समान है?",
"Present Address Pin Code":"वर्तमान पता पिन कोड",
"Employment Status":"व्यवसाय-स्थिति",
"Handicapped Category":"विकलांग श्रेणी",
"Handicapped Sub Category":"विकलांग उपश्रेणी",
"Disablity Priority":"असमानता की प्राथमिकता",
"Block":"खंड",
"Panchayat":"पंचायत",
"Note : Enter your education in chronological order":"नोट: कालानुक्रमिक क्रम में अपनी शिक्षा दर्ज करें",
"Add Education":"शिक्षा जोड़ें",
"Course Type":"कोर्स का प्रकार",
"Experience Details":"अनुभव सम्बन्धी विवरण",
"Designation":"पद",
"Organization":"संस्था",
"Is your Current Company?":"क्या आपकी करंट कंपनी है?",
"Started Working From Year":"कौनसे साल से काम करना शुरू किया",
"Started Working From Month":"कौनसे महीने से काम करना शुरू कर दिया",
"Worked Till Year":"कौनसे साल तक काम किया",
"Worked Till Month":"कौनसे महीने तक काम किया",
"Salary in Lacs":"लाख में वेतन",
"Salary in Thousands":"हजारों में वेतन",
"Describe your Job Profile":"अपनी जॉब प्रोफाइल का वर्णन करें",
"Notice Period":"नोटिस की अवधि",
"Work Till":"काम करते हैं",
"Applying for Defence services":"रक्षा सेवाओं के लिए आवेदन करना",
"Physical Details":"भौतिक विवरण",
"Chest":"सीना",
"Height":"ऊंचाई",
"Weight":"वजन",
"Eye Sight":"नेत्र दृष्टि",
"Other Activites":"अन्य गतिविधियां",
"Sports Name":"खेल का नाम",
"Sports Certificate":"खेल प्रमाण पत्र",
"NCC Certificate":"एनसीसी प्रमाण पत्र",
"Certification Under Government Scheme":"शासकीय योजनाओं के अंतर्गत प्राप्त किये गए प्रमाण पत्रों का विवरण",
"Training Program":"प्रशिक्षण कार्यक्रम",
"Centre":"केंद्र",
"Scheme":"योजना",
"Duration":"अवधि",
"Skill":"कौशल",
"Additional Skills ":"अतिरिक्त दक्षता", 
"Last used":"उपयोग करने का अंतिम वर्ष",
"Job Preference":"कार्य प्राथमिकता",
"Year":"साल",
"Certification":"प्रमाणीकरण",
"Basic Details":"मूल विवरण",
"Apply For Jobs":"जॉब के लिए अपलाइ करें",
"NCS":"एनसीएस",
"Browse All Jobs":"सभी नौकरियां ब्राउज़ करें",
"Job by Company":"कंपनी द्वारा नौकरी",
"Job by Designation":"पदनाम द्वारा नौकरी",
"Job by Location":"स्थान द्वारा नौकरी",
"More":"अधिक",
"Renew Registration":"नवीकरण पंजीकरण",
"Print Registration Card":"पंजीयन कार्ड प्रिंट करें",
"Set  Preference":"वरीयता सेट करें",
"Notification Setting":"अधिसूचना सेटिंग",
"Job Fair List":"रोजगार मेला",
"Browse Jobs by Top Location":"शीर्ष स्थान से नौकरियां ब्राउज़ करें",
"My Profile":"मेरी प्रोफाइल",
"Change Password":"पासवर्ड बदलें",
"Logout":"लॉग आउट",
"Do Not Disturb (DND)":"परेशान न करें (डीएनडी)",
"Via SMS :":"एसएमएस के माध्यम से :",
"Via Email :":"ईमेल के माध्यम से :",
"Upload":"अपलोड",
"DOMICILE DOC":"निवास प्रमाण पत्र",
"Attach Resume":"रिज्यूमे संलग्न करें ",
"Resume is the most important document recruiters look for. Recruiters generally do not look at profiles without resumes.":"नियोक्ताओं के लिये रिज्यूमे सबसे महत्वपूर्ण डॉक्यूमेंट  है। नियोक्ता आमतौर पर बिना रिज्यूमे के प्रोफाइल को नहीं देखते हैं।",
"Print Resume":"बायोडाटा की छाप",
"Profile Summary":"प्रोफ़ाइल सारांश",
"Additional Skills":"अतिरिक्त खूबी",
"Skills":"कौशल",
"Version":"संस्करण",
"Last Used":"अंतिम बार उपयोग किया गया",
"Experience":"अनुभव",
"Resume Headline":"संक्षिप्त विवरण का शीर्षक",
"Add Resume Headline":"संक्षिप्त विवरण का शीर्षक जोड़ें",
"Resume Head line":"रिज्यूमे हैडलाइन",
"It is the first thing recruiters notice in your profile. Write concisely what makes you unique and right person for the job you are looking for.":"यह आपकी प्रोफ़ाइल में पहली चीज है जिसे रिक्रूटर्स नोटिस करता है। जो बनाता है, उसे संक्षेप में लिखें आप जिस नौकरी की तलाश में हैं उसके लिए आप अद्वितीय और सही व्यक्ति हैं।",
"Specify details about programming languages (such as Java, Python, C/C++, Oracle, SQL etc), softwares (Microsoft Word, Excel, Tally etc) or any other software related knowledge.":"प्रोग्रामिंग भाषाओं (जैसे जावा, पायथन, सी / सी ++, ओरेकल, एसक्यूएल आदि), सॉफ्टवेयर्स (माइक्रोसॉफ्ट वर्ड, एक्सेल, टैली आदि) या किसी अन्य सॉफ्टवेयर संबंधी ज्ञान के बारे में विवरण निर्दिष्ट करें।",
"Add Profile Summary":"प्रोफ़ाइल सारांश जोड़ें",
"Experience (In Year)":"अनुभव (वर्ष में)",
"Experience (In Month)":"अनुभव (महीने में)",
"Searched Jobs":"खोजे गए अवसर",
"Key Skills":"मुख्य दक्षता",
"Tell recruiters what you know or what you are known for e.g. Direct Marketing, Oracle, Java etc. We will send you job recommendations based on these skills.":"भर्तियों को बताएं कि आप क्या जानते हैं या आप जो ई.जी. डायरेक्ट मार्केटिंग, ओरेकल, जावा आदि हम भेजेंगे आप इन कौशलों के आधार पर सिफारिशें देते हैं।",
"Add Experience Detail":"अनुभव का विवरण जोड़ें",
"Add Personal Detail":"व्यक्तिगत विवरण जोड़ें",
"Typing/Steno Details":"टाइपिंग/स्टेनो विवरण",
"Language":"भाषा",
"Type":"प्रकार",
"Institute":"संस्थान",
"Passed Year":"उत्तीर्ण करने का वर्ष",
"Speed":"गति",
"License Details":"लाइसेंस विवरण",
"Card Type":"कार्ड के प्रकार",
"Card Number":"कार्ड नंबर",
"License type":"लाइसेंस के प्रकार",
"Issuing Date":"जारी करने की तारीख",
"Valid Upto":"वैध है",
"Issuing Authority":"जारी कर्त्ता अधिकारी",
"Language Details":"भाषा का विवरण",
"Read":"पढ़ना",
"Write":"लिखना",
"Speak":"बोलना",
"Projects":"प्रोजेक्ट",
"Project Title":"परियोजना का शीर्षक",
"Employement/Education":"रोजगार / शिक्षा",
"Client":"ग्राहक",
"Project Status":"परियोजना की स्थिति",
"Working From Year":" कौनसे साल से काम कर रहा है",
"Working From Month":" कौनसे महीने से काम कर रहा है",
"Work Till Year":"कौनसे साल तक काम करें",
"Comments":"आलोचना",
"Add Project":"परियोजना जोड़ें",
"Add Project Detail":"परियोजना जोड़ें",
"Only accept .docx/.doc/.pdf file and of 1MB":"केवल .docx / .doc / .pdf फ़ाइल और 1MB स्वीकार करें",
"Document":"दस्तावेज़",
"Subject":"विषय",
"Resume":"रिज्यूमे",
"Jobs by Location":"स्थान द्वारा नौकरियां",
"Jobs":"नौकरियां",
"NCS For Employer":"नियोक्ता के लिए एनसीएस सेवाएं",
"NCS For Jobseeker":"आवेदक के लिए एनसीएस सेवाएं",
"Your Profile Summary should mention the highlights of your career and education, what your professional interests are, and what kind of a career you are looking for. Write a meaningful":"आपके प्रोफाइल सारांश में आपके करियर और शिक्षा, आपके पेशेवर हित क्या हैं और आप किस तरह के करियर की तलाश कर रहे हैं, इस पर प्रकाश डाला गया है। सार्थक लिखो",
"Yes":"हाँ",
"No":"नहीं",
"PRINT REGISTRATION CARD":"प्रोफाइल  प्रिंट करें",
"Percentage Range":"प्रतिशत सीमा",
"First Division  - (60%-100%)":"प्रथम श्रेणी - (60% -100%)",
"Second Division - (50%-59%)":"द्वितीय श्रेणी - (50% -59%)",
"Third Division - (33%-49%)":"तृतीय श्रेणी - (33%-49%)",
"Grade A - (85%-100%)":"ग्रेड ए - (85% -100%)",
"Grade B- (70%-84%)":"ग्रेड बी- (70% -84%)",
"Grade C- (55%-69%)":"ग्रेड सी- (55% -69%)",
"Password must contain the following:":"पासवर्ड में निम्नलिखित शामिल होना चाहिए:",
"Atleast one letter":"कम से कम एक अक्षर",
"Atleast one number":"कम से कम एक नंबर",
"Not to use special character":"विशेष वर्ण का उपयोग ना करे",
"Length must be min. 8":"लंबाई न्यूनतम 8 होनी चाहिए",
"Subscribe for job alert":"जॉब अलर्ट के लिए सब्सक्राइब करें",
"Via SMS":"एसएमएस के माध्यम से",
"Via E-Mail":"ईमेल द्वारा",
"The information as provided above is true to the best of my knowledge.":"उपरोक्त जानकारी के रूप में प्रदान की गई जानकारी मेरे सर्वोत्तम ज्ञान के अनुसार सही है।",
"enter the Text Below inText Box":"प्रदर्शित संख्या दर्ज करें",
"Over the years direct employment opportunities in the organized public, as well as the private sector, have reduced considerably. In recent years direct recruitment in Government jobs has almost came to standstill. The government is now laying increasing emphasis on self-employment and vocational training. With increasing population and decreasing job prospects in the organized sector, the performance of Employment Exchanges (Offices) in terms of the submission made and placements achieved has also been steadily declining over the years. Employers demand fewer and fewer candidates. While the number of educated job seekers increases, very few candidates actually get absorbed in permanent jobs. The employment opportunities through Employment Exchanges (Offices) for the last 5 years have declined in the State shown below:":"विगत वर्षो में सरकारी क्षेत्रों एवं संगठित निजी क्षेत्रों में भी वैतनिक रोजगार के अवसर काफी मात्रा में कम हो गये हैं। फलस्वरूप हाल के वर्षो मे सरकारी नौकरियों की संख्या अत्यन्त सीमित होने के साथ-साथ इनमें स्थायित्व आ गया है। अतः सरकार का ध्यान ज्यादातर स्वरोजगार एवं व्यवसायिक प्रशिक्षण की ओर हो गया है।बढती जनसंख्या एवं घटती नौकरियों की वर्तमान स्थिति में रोजगार कार्यालयों के नौकरी के लिये संप्रेषण एवं नियुक्ति के आंकडे वर्ष दर वर्ष घटते जा रहे हैं। नियोजकों द्वारा रिक्तियों की संख्या क्रमश: कम की जा रही है, जबकि अधिक संख्या में शिक्षित व्यक्ति रोजगार कार्यालयों में नौकरी की तलाश में पंजीकृत है। इस परिदृश्य में रोजगार कार्यालयों में पंजीकृत व्यक्तियों की अत्यन्त सीमित संख्या ही स्थायी रोजगार में नियुक्त हो पाती है।",
"Department of Technical Education, Skill Development and Employment, Government of Madhya Pradesh":"तकनीकी शिक्षा, कौशल विकास और रोजगार विभाग, मध्य प्रदेश सरकार",
"Comparative Performance of Employment Exchanges in Past Five Years":"विगत पाँच वर्षों में रोजगार कार्यालयों के कार्यों का वार्षिक तुलनात्मक प्रदर्शन",
"DETAIL":"विवरण",
"YEAR 2015":"वर्ष 2015",
"YEAR 2016":"वर्ष 2016",
"YEAR 2017":"वर्ष 2017",
"YEAR 2018":"वर्ष 2018",
"YEAR 2019":"वर्ष 2019",
"Registration":"पंजीयन",
"Placement":"नियुक्ति",
"Submission":"संप्रेषण",
"Vacancies":"अधिसूचित रिक्तियाँ",
"Live Register":"लाइव रजिस्टर",
"Hence the role of the Department is slowly changing from direct recruitment for salaried jobs to promotion of Self Employment, vocational guidance, co-ordination and monitoring of the implementation of various self employment schemes.":"इसलिए स्वरोजगार को बढ़ावा देने, व्यावसायिक मार्गदर्शन, समन्वय और विभिन्न स्वरोजगार योजनाओं के कार्यान्वयन की निगरानी के लिए प्रत्यक्ष भर्ती से विभाग की भूमिका धीरे-धीरे बदल रही है।",
"Employment Portal is developed so as to assist the Job Seekers and Employers to access each other through common platform under the desired criteria or as per their demand. This portal will also help in career guidance and vocational training too.":"रोजगार पोर्टल विकसित किया गया है ताकि वांछित मानदंडों के तहत या अपनी मांग के अनुसार सामान्य मंच के माध्यम से नौकरी चाहने वालों और नियोक्ताओं की सहायता कर सकें। यह पोर्टल कैरियर मार्गदर्शन और व्यावसायिक प्रशिक्षण में भी मदद करेगा।",
"A Perspective":"एक परिप्रेक्ष्य",
"Set Up Of Madhya Pradesh Employment Service":"मध्यप्रदेश रोजगार सेवा का ढांचा",
"The Employment Service in India came into existence, mainly under the stress of post-war demobilization. Towards the end of the second world war the need for machinery that could handle orderly absorption in civil life, a large number of service personnel and war workers, who were about to be released, was keenly felt. Having regard to the complexity of the problem and to ensure uniformity in policies and effective coordination of efforts, it was considered necessary that the proposed machinery be directed and controlled by the Central Government. Under a scheme, the Directorate General of Resettlement and Employment was set up in July 1945, and Employment Exchanges were opened in several parts of the country. With the partition of the country in 1947, the Employment Exchanges were called upon to deal with resettlement of a large number of persons, who were displaced. By 1948, in response to popular demand, the scope of the service was extended to all categories of applicants. This transition of the Employment Service from a resettlement agency to an all India placement organization resulted in an enormous increase of work. From 1st November 1956 administrative control of the Employment Service was transferred to the respective states by the Government of India.":"रोजगार सेवा भारत में युद्धोत्तर विसैन्यीकरण के भार के अधीन शुरू हुई। द्वितीय विश्‍व युद्ध के बाद एक ऐसे तंत्र की आवश्यकता महसूस की गई जो बडी संख्या में सेवा मुक्त किये जाने वाले सैन्य कार्मिकों और सैनिकों को सुव्यवस्थित तरीके से नागरिक जीवन में पुनः समाह्त कर सके। इस समस्या की जटिलता को ध्यान में रखते हुये और नीतियों की एकरूपता और प्रयत्नों के प्रभावी समन्वय को सुनिश्चित करने के लिये यह आवश्यक समझा गया कि प्रस्तावित तंत्र केन्द्रीय सरकार के निर्देश और नियंत्रण में कार्य करे। एक योजना के अनुसार केन्द्रीय और राज्य सरकारों की सहमति से जुलाई 1955 में पुनः स्थापन और रोजगार महानिदेषालय की स्थापना की गई और धीरे धीरे देश के विभिन्न भागों में रोजगार कार्यालय खोले गये। 1946 के अंत तक रोजगार सेवा सुविधायें विसैन्यीकृत सैन्य कार्मिकों और सेवामुक्त सैनिकों के लिये ही हुआ करती थी। 1947 मे देश का विभाजन होने पर रोजगार कार्यालयों को बडी संख्या में विस्थापित हुये लोगों को पुनः स्थापन करने के लिये कहा गया। बढती हुई लोकप्रियता को देखते हुये इस सेवा के कार्यक्षेत्र का धीरे धीरे विस्तार किया गया और 1948 के शुरू तक रोजगार कार्यालय के सभी श्रेणियों के आवेदकों के लिये भी खोल दिय गये।  फलस्वरूप भारत सरकार ने एक नवम्बर 1956 से रोजगार सेवाओं का प्रशासकीय नियंत्रण संबंधित राज्यों को स्थानान्तरित कर दिया।",
"Know Your Registration Details":"अपना पंजीकरण विवरण जानिए",
"Registration Date":"पंजीकरण की तारीख",
"Registration Detail":"पंजीकरण विवरण",


"At present 51 as District Employment Exchanges, 1 Special Employment Exchange for Differently Abled Persons at Jabalpur, 1 Coaching cum Guidance Centre for SC/ST at Ujjain, 1 Extension counter at Jabalpur and Directorate office at Bhopal.":"वर्तमान में राज्य में 51 जिला रोजगार कार्यालय, एक दिव्यांगजनों के लिये विशेष रोजगार कार्यालय जबलपुर में संचालित हैं एवं एक कोचिंग कम गाईडेन्स सेंटर (एस सी/एसटी) उज्जैन में स्थापित है। संचालनालय भोपाल में स्थित है एवं जबलपुर में संचालनालय का विस्तार पटल है।",


"Main Departmental Activities":"प्रमुख विभागीय गतिविधियां-",
"Registration and Placement of Job-Seekers In Gainful Employment.":"रोजगार के इच्छुक व्यक्तियों को रोजगार सहायता के लिये पंजीयन एवं स्थापन।",
"Enforcement of the Employment Exchanges (Compulsory Notification of Vacancies) Act 1959.":"रोजगार कार्यालयों का प्रवर्तन ( रिक्तियों की अनिवार्य अधिसूचना) अधिनियम 1959.",
"Collection and compilation of statistics regarding Employment Market Information.":"रोजगार बाजार सूचना संबंधी आंकडों का संकलन एवं संग्रहण",
"Providing Vocational and Career Guidance to job-seekers who visit Employment Exchanges as well as to students of Schools Colleges and Universities.":"रोजगार परिसर के अंदर रोजगार कार्यालयों में आने वाले बेरोजगारों की कैरियर काउंसलिंग करना एवं व्यवसायिक मार्गदर्शन देना, रोजगार परिसर के बाहर स्कूल कॉलेजो एवं अन्य शिक्षण संस्थानों में।",
"Vocational Guidance Program":"व्यावसायिक मार्गदर्शन कार्यक्रम-",
"The main objective of this program is to provide guidance and employment counseling to students of schools/colleges and un-employed youth registered with the Employment Exchanges keeping in view their educational and mental capacities, interests, aptitudes, and present employment trends. The Vocational Guidance is free and voluntary and is available to all the registrants and the students of schools colleges and universities.":"इस कार्यक्रम का मुख्य उद्देश्य रोजगार कार्यालयों में पंजीयन के लिये आनेवाले/पंजीकृत बेरोजगार युवकों के साथ-साथ स्कूल, महाविद्यालय एवं विश्‍वविद्यालयों में अध्ययनरत छात्रों के विभिन्न कॅरियर विकल्पों के लिये काउंसलिंग करना तथा व्यावसायिक मार्गदर्शन देना है।व्यावसायिक मार्गदर्शन एवं कॅरियर काउंसलिंग में छात्रों/बेरोजगारों की शैक्षणिक योग्यता, मानसिक स्तर, रूचि, अभिरूचि एवं उपलब्ध रोजगार अवसरों पर विचार किया जाता है।व्यावसायिक मार्गदर्शन कार्यक्रम निःशुल्क, स्वैच्छिक एवं रोजगार कार्यालय में पंजीयन कराने वाले/पंजीकृत एवं स्कूल, काॅलेज, विश्‍वविद्यालय/छात्रों सभी के लिये उपलब्ध है।",
"Employment Market Information (EMI)":"रोजगार बाजार सूचना-",
"This program envisages a quarterly study of the employment situation in the state. The information thus collected is analyzed, compiled, and submitted to the Director-General of Employment & Training, Government of India, Ministry of Labor, New Delhi and State Planning Board for formulating manpower scheme. This program helps in identifying the changes in the pattern of employment and occupations in the State and the extent of shortages and surplus of various types of workers.":"इस कार्यक्रम के अंतर्गत राज्य में त्रैमासिक अवधि के लिये रोजगार संभावनाओं का अध्ययन किया जाता है। रोजगार से सबंधित आंकडों को संग्रहण विश्लेषण के पश्‍चात्  रोजगार महानिदेषालय श्रम मंत्रालय नई दिल्ली एवं राज्य आयोजना बोर्ड को भेजा जाता है इस प्रकार संग्रहित आंकडे जनशक्ति योजनायें बनाने में उपयोगी होते हैं।",
"Enforcement of Compulsory Notification of Vacancies Act - 1959":"रिक्तियों की अनिवार्य अधिसूचना अधिनियम 1959 का प्रवर्तन-",
"To ensure proper compliance of the provisions of Employment Exchanges (Compulsory Notification of Vacancies) Act, 1959 and Enforcement Cell was set up in the Directorate of Employment Madhya Pradesh in July 1974. Its main purpose is to acquaint and guide the employers both in Public and Private Sectors about the provisions and requirements of the said Act to notify all the vacancies to the nearest employment exchange.":"रिक्तियों की अनिवार्य अधिसूचना अधिनियम 1959 के प्रवर्तन के लिये रोजगार संचालनालय में जुलाई 1974 मे इसके लिये एक सेल गठित की गई है इस सेल का प्रमुख कार्य एक्ट के प्रावधानों एवं इस एक्ट की आवश्यकता के सबंधं में सार्वजनिक एवं निजी क्षेत्र के संस्थानों को मार्गदर्शन एवं सहयोग प्रदान करना है। ",
"Employment Portal":"रोजगार पोर्टल",
"Employment Portal is developed to assist the Job Seekers and Employers to access each other through a common platform under the desired criteria or as per their demand. This portal will help in career guidance and vocational training too.":"रोजगार पोर्टल को विकसित किया गया है ताकि वांछित मानदंडों के तहत या उनकी मांग के अनुसार सामान्य मंच के माध्यम से नौकरी चाहने वालों और नियोक्ताओं की सहायता कर सकें। यह पोर्टल कैरियर मार्गदर्शन और व्यावसायिक प्रशिक्षण में भी मदद करेगा।",
"Job Fairs are also being organized for Private Sector Employer so that more and more Job Seekers can be employed. The response and results are amazing.":"निजी क्षेत्र के नियोक्ताओं के लिए जॉब फेयर का भी आयोजन किया जा रहा है, ताकि अधिक से अधिक जॉब सीकर्स को रोजगार दिया जा सके। इसकी प्रतिक्रिया और परिणाम आश्चर्यजनक हैं।",
"Manufacturing":"विनिर्माण",
"Banking ,NBFC & MFI":"बैंकिंग, एनबीएफसी और एमएफआई",
"FMCG":"एफएमसीजी",
"Real Estate":"रियल एस्टेट",
"Telecom":"दूरसंचार",
"Retail":"खुदरा",
"Shipping":"शिपिंग",
"Media & Advertising":"मीडिया विज्ञापन",
"BPO/KPO":"बीपीओ / केपीओ",

"Logistics Fertilizers/Pesticides":"रसद उर्वरक / कीटनाशक",
"Hotel Industry":"होटल उद्योग",
"E-commerce.":"ई-कॉमर्स.",

"PPP Project":"पी पी पी प्रोजेक्ट",

"Recently, on 9th May 2018, the Government of Madhya Pradesh through Commissioner of Employment has awarded Yashaswi the Contract of Upgradation and Modernization of Employment Exchanges into Placement Centers in the State of Madhya Pradesh on Public Private Partnership (PPP) basis for 10 years. Under the project i.e. first of its kind in the country 15 District Employment Exchanges in the state are to be developed as Placement Centers. The selected District Employment Exchanges for the project are Bhopal, Hoshangabad, Rewa, Satna, Singrauli, Gwalior, Jabalpur, Indore, Dewas, Dhar, Ujjain, Khargaon, Sagar, Katni and Shahdol.":"9 मई 2018 को मध्य प्रदेश शासन की तरफ से अथॉरिटी रोजगार आयुक्त और यशस्वी टैलेंट मैनेजमेंट अकादमी के बीच जन निज भागीदारी प्रोजेक्ट के अंतर्गत 10 वर्षों के लिए प्रदेश के रोजगार कार्यालयों को प्लेसमेंट सेंटर्स के रूप में उन्नयन एवं आधुनिकरण के लिए अनुबंध किया गया है यह प्रोजेक्ट जो कि देश में अपने तरीके का पहला है इसके तहत प्रदेश के चुनिंदा 15 जिला रोजगार कार्यालयों को प्लेसमेंट सेन्टर के रूप में विकसित किया जाना है इस प्रोजेक्ट के तहत चुने गए कार्यालय हैं - भोपाल होशंगाबाद रीवा सतना सिंगरौली ग्वालियर जबलपुर इंदौर देवास धार उज्जैन खरगौन सागर कटनी एवं शहडोल |",

"Life Sciences & Health Care Automobile Infrastructure":"लाइफ साइंसेज एंड हेल्थ केयर ऑटोमोबाइल इन्फ्रास्ट्रक्चर",
"Accordingly a special purpose company by name Yashaswi Academy for Talent Management Private Ltd has been registered for the said project and the company has started its operations through the District Employment Exchanges as Placement Centers with its trained manpower in each of the centers.":"तदनुसार, टैलेंट मैनेजमेंट प्राइवेट लिमिटेड के लिए यशस्वी अकादमी के नाम से एक विशेष प्रयोजन कंपनी को उक्त परियोजना के लिए पंजीकृत किया गया है और कंपनी ने प्रत्येक केंद्रों में अपने प्रशिक्षित जनशक्ति के साथ प्लेसमेंट सेंटर के रूप में जिला रोजगार एक्सचेंज के माध्यम से अपना परिचालन शुरू किया है।",
"The company is into on all types & Categories of Manpower Recruitments. Yashaswi has been serving all types of Manufacturing companies, Banking, NBFC, Service industry, Software & Allied sectors at various levels across India.":"कंपनी सभी प्रकार और जनशक्ति भर्तियों की श्रेणियों में है। यशस्वी भारत भर में विभिन्न स्तरों पर सभी प्रकार की विनिर्माण कंपनियों, बैंकिंग, एनबीएफसी, सेवा उद्योग, सॉफ्टवेयर और संबद्ध क्षेत्रों में सेवा दे रहा है।",
"With rich experience & organizational expertise, we identify the “Right people for the Right job”. We understand the philosophy of our client and thus provide the right people.":"समृद्ध अनुभव और संगठनात्मक विशेषज्ञता के साथ, हम सही नौकरी के लिए सही लोगों की पहचान करते हैं। हम अपने ग्राहक के तत्त्वज्ञान को समझते हैं और इस प्रकार सही लोगों को प्रदान करते हैं।",
"Yashaswi has its own identity across India with presence in more than 23 States with branch offices.":"यशस्वी अकादमी फॉर टैलेंट मैनेजमेंट प्राइवेट लिमिटेड, पुणे देश में अपनी तरह की पहली परियोजना प्रतीत होती है।",
"We at Yashaswi group have been awarded this project by Madhya Pradesh Government for the duration of 10 years. We have started our work and are operating the District Employment Exchanges at the above 15 Centers":"परियोजनान्तर्गत 15 जिला रोजगार कार्यालय - भोपाल, होशंगाबाद, रीवा, सतना, सिंगरौली,ग्वालियर, जबलपुर, इंदौर, देवास, धार, उज्जैन, खरगाँव, सागर, कटनी, शहडोल को प्लेसमेंट केंद्रों के रूप में संचालित किया जायेगा ।",
"About the Portal":"पोर्टल के बारे में",
"About the MP Rojgar Portal":"मध्य प्रदेश रोजगार पोर्टल के बारे में",
"Feedback Area":"फीडबैक स्थान",
"Counselor":"परामर्शदाता",
"Skill Development Centre":"कौशल विकास केंद्र",
"Placement Services":"प्लेसमेंट सेवाएँ",
"Counselling":"काउंसिलिंग",
"Job alerts":"नौकरी अलर्ट",
"Recruiter":"भर्ती",
"Call Centre":"कॉल सेंटर",
"Govt Section":"शासकीय अनुभाग",
"Self Employment Schemes":"स्व रोजगार योजनाएँ",
"Learning":"सीखना",
"Examination":"परीक्षा",
"Job seeker services":"नौकरी चाहने वालों हेतु सेवाएं",
"Upload Document":"दस्तावेज़ अपलोड करें",
"You Can Only Attach Image or Document File i.e.(pdf, doc, docx,jpg, Gif, png)":"आप केवल इमेज या डॉक्यूमेंट फाइल यानि (पीडीएफ, डॉक, डॉक्स, जेपीजी, जीआईएफ, पीएनजी) संलग्न कर सकते हैं",

"This employment portal has been prepared with the objective of providing a platform to the state's employers and job seekers. On this portal, the unemployed can not only register and renew their name sitting at home, but can also get information about employment opportunities.":"प्रदेश के नियोजक एवं रोजगार खोजने वाले युवाओं को एक प्लेटफार्म उपलब्ध कराने के उद्देश्य से इस रोजगार पोर्टल को तैयार किया गया है। इस पोर्टल पर बेरोजगार न केवल अपना नाम पंजीकृत एवं नवीनीकृत घर बैठे ही कर सकता है बल्कि रोजगार अवसरों की जानकारी भी प्राप्त कर सकता है।",
"On this portal, the employers can submit information about the vacancies in their institute and can also select the applicants according to the qualifications. The information about vacancies notified by the employer continues to be displayed on the portal, so that the youth are aware of the available vacancies.":"इस पोर्टल पर नियोजक अपने संस्थान में होने वाले रिक्त स्थान की सूचना प्रस्तुत कर सकते हैं एवं योग्यतानुसार आवेदकों का चयन भी कर सकते हैं। नियोजक द्वारा अधिसूचित रिक्त स्थानों की जानकारी पोर्टल पर प्रदर्शित होती रहती हैए जिससे युवा उपलब्ध रिक्तयों की जानकारी से अवगत होते रहते हैं।",
"The information given by the applicant and the vacancies notified by the employer are matched by the portal and the applicant is informed by e-mail and SMS. The portal provides online facility to the applicant to participate in the employment fair.":"आवेदक द्वारा दी गई जानकारी एवं नियोजक द्वारा अधिसूचित रिक्त स्थान का मिलान पोर्टल द्वारा किया जाकर आवेदक को ई-मेल एवं एस.एम.एस द्वारा सूचना दी जाती है। पोर्टल आवेदक को रोजगार मेले मे भाग लेने के लिये ऑन लाईन सुविधा प्रदान करता है।",
"Through this portal, information is also provided about the courses in career counseling  and skill development. Also with the  Toll-free number provided on the portal, the applicant will get the resolution of the problems faced by them.":"पोर्टल के माध्यम से करियर काउंसिलिंग एवं कौषल विकास पाठयक्रमों की जानकारी ही जाती है। साथ ही पोर्टल पर उपलब्ध कराये गये टोल फ्री नं0 के माध्यम से आवेदक अपनी समस्याओं का समाधान प्राप्त कर सकते हैं। ",
"Through this the job seeker gets the maximum suitable vacancies information matching his profile on the portal.":"  ",
"The portal also facilitates the convenience to job seekers, to participate and register online in the job fairs organised in the state. With the help of the portal, Job fairs can be organised for any locations, numbers of job seeker and employer participants in MP. Through this the job seeker can get the details on the job fairs and acquire his entry pass to the job fair, which is organised in the state, without visiting his employment exchange office.":"  ",
"My MP Rojgar portal also provides the facility of career counselling, the information on different surveys, skill development courses available to the job seekers.":"  ",
"Additionally, it also gives them platform to register their query and get the resolution of the same .With the help of a toll free number (1800 5727751)of the call centre they can call and speak to the Call centre executive directly , also the job seeker through the chat bot and email services can register his concern to the department and look for the solution on it.":"  ",

"Since 1st January 2009, an Employment Portal is developed so as to assist the Job Seekers and Employers to access each other through common platform under the desired criteria or as per their demand. To improve Career counseling and to provide better help for job seekers the employment portal has been upgraded recently.":"जाॅब सीकर एवं नियोजकों को एक प्लेटफार्म पर लाने की प्रक्रिया को आसान बनाने के लिये रोजगार पोर्टल 1 जनवरी 2009 से विकसित किया गया है। कैरियर मार्गदर्शन एवं रोजगार की तलाश कर रहे जाॅब सीकर्स के लिये अधिकाधिक उपयोगी बनाने के लिये हाल ही में रोजगार पोर्टल को समुन्नत किया गया है।",
"Register:":"जीवित पंजी",
"M.P Rojgar":"मध्य प्रदेश रोजगार",
"YASHASWI":"यशस्वी",
"Call Center":"कॉल सेंटर",
"Address:":"पता:",

"Yashaswi Academy for Talent Management, a Company incorporated under Section 8 of the Companies Act 1956 and having its registered office at 7, Amit Court, CTS 95 A, Shivajinagar, Pune 411005 herein after referred to as “YASHASWI”. Since inception we are providing the most reliable, prompt, and accountable and simplified services to our clients. We have acquired experience in understanding the dynamics of attracting quality executives and identifying the key leadership characteristics.":" यशस्वी एकेडमी  फ़ोर् टैलेंट मैनेजमेंट , एक कंपनी कंपनी अधिनियम 1956 की धारा 8 के तहत निगमित और 7, अमित कोर्ट, सीटीएस 95 ए, शिवाजीनगर, पुणे में 411005 में अपना पंजीकृत कार्यालय होने के बाद 'यशस्वी' के रूप में संदर्भित। स्थापना के बाद से हम अपने ग्राहकों को सबसे विश्वसनीय, त्वरित और जवाबदेह और सरलीकृत सेवाएं प्रदान कर रहे हैं। हमने गुणवत्ता अधिकारियों को आकर्षित करने और प्रमुख नेतृत्व विशेषताओं की पहचान करने की गतिशीलता को समझने में अनुभव प्राप्त किया है।",
"Recently, on 9th May 2018, the Government of Madhya Pradesh through Commissioner of Employment, Madhya Pradesh State Skill Development & Employment Generation Board (MPSSDEGB) has awarded Yashaswi the Contract of Upgradation and Modernization of Employment Exchanges into Placement Centers in the State of Madhya Pradesh on Public Private Partnership (PPP) Basis for a period of 10 years. The Commissioner of Employment, Directorate of Industries & Employment,6th Floor, Vindhyachal Bhavan, Bhopal,Madhya Pradesh has signed with us M/s.Yashaswi Academy for Talent Management Pvt Ltd, Pune a project which is a first project of its kind in the Country wherein the District Employment Centers in 15 Districts ( Bhopal, Hoshangabad, Rewa, Satna, Singrauli, Gwalior, Jabalpur, Indore, Dewas, Dhar, Ujjain, Khargaon, Sagar, Katni, Shahdol ) shall be run as placement centers.":"हाल ही में, 9 मई 2018 को, मध्य प्रदेश सरकार ने आयुक्त, मध्य प्रदेश राज्य कौशल विकास और रोजगार सृजन बोर्ड (एमपीएसएसडीईज़ीबी) के माध्यम से मध्य प्रदेश राज्य में प्लेसमेंट केंद्रों में रोजगार के उन्नयन और आधुनिकीकरण के अनुबंध को यशस्वी से सम्मानित किया है। 10 साल की अवधि के लिए सार्वजनिक निजी भागीदारी (पीपीपी) आधार पर। रोजगार आयुक्त, उद्योग और रोजगार निदेशालय, 6 ठी तल, विंध्याचल भवन, भोपाल, मध्य प्रदेश ने हमारे साथ हस्ताक्षर किया है। यशस्वी अकादमी फॉर टैलेंट मैनेजमेंट प्राइवेट लिमिटेड, पुणे एक परियोजना है जो एक पहली है देश में अपनी तरह का प्रोजेक्ट जिसमें 15 में जिला रोजगार केंद्र हैं जिले (भोपाल, होशंगाबाद, रीवा, सतना, सिंगरौली, ग्वालियर, जबलपुर, इंदौर, देवास, धार, उज्जैन, खरगाँव, सागर, कटनी, शहडोल) को रोजगार के रूप में चलाया जाएगा केंद्र।",
"Yashaswi Academy for Talent Management is not for Profit Company & a Group Company of Yashaswi Group which is engaged in the Human Resource, Skill Development & in Apprenticeship domain. Its Flagship Company Yashaswi Institute of Technology have conceived, developed & implemented India’s first ‘Learn and Earn’ scheme and has been awarded as the Best Skill Initiative by Ministry of Skill Development & Entrepreneurship, Govt. of India":"प्रतिभा प्रबंधन के लिए यशस्वी अकादमी लाभ कंपनी और यशस्वी समूह की एक समूह कंपनी के लिए नहीं है जो मानव संसाधन, कौशल विकास और शिक्षुता क्षेत्र में लगी हुई है। इसकी फ्लैगशिप कंपनी यशस्वी प्रौद्योगिकी संस्थान ने भारत की पहली और सीखो और कमाओ ’योजना की कल्पना, विकास और कार्यान्वयन किया है और इसे कौशल विकास और उद्यमिता मंत्रालय, सरकार द्वारा सर्वश्रेष्ठ कौशल पहल के रूप में सम्मानित किया गया है। भारत की",


"Yashaswi Academy for Talent Management is a professional quality centric commercial establishment with core competency in the area of recruitment, contractual staffing, Skill Development. We pinpoint the ideal hire for your organization - targeting based on experience, qualification, knowledge, skills, geography, industry etc.":"टैलेंट मैनेजमेंट के लिए यशस्वी अकादमी एक पेशेवर गुणवत्ता केंद्रित व्यावसायिक प्रतिष्ठान है, जिसमें भर्ती, संविदात्मक कर्मचारी, कौशल विकास के क्षेत्र में मुख्य योग्यता है। हम आपके संगठन के लिए आदर्श किराया निर्धारित करते हैं - अनुभव, योग्यता, ज्ञान, कौशल, भूगोल, उद्योग आदि के आधार पर लक्ष्यीकरण।",
"Having vast experience of Contractual Staffing ,sourcing and placement into various sectors, we offer a full range of services at all levels in different Industries, such as –":"विभिन्न क्षेत्रों में संविदात्मक कर्मचारी, साधन और रोजगार का विशाल अनुभव होने के बाद, हम विभिन्न उद्योगों में सभी स्तरों पर सेवाओं की पूरी श्रृंखला की पेशकश करते हैं, जैसे -",
"Banking ,NBFC & MFI.":"बैंकिंग, एनबीएफसी और एमएफआई",


"Bhopal, 09th May 2018: From left, Mr.Sanjeev Singh,Director of Department of Employment,Mr.Hemant Deshmukh Chairman, Skill Development &; Employment Generation Board, MP; Mr.Deepak Joshi,Technical Education, Skill Development and Employment Minister of MP;Mr.Sukhveer Singh, Chief  Executive Officer of Madhya Pradesh Employment Generation Board and Mr.Vishwesh Kulkarni, President,Yashaswi Academy.":"भोपाल, 09 मई 2018: बाएं से, श्री संजीव सिंह, रोजगार विभाग के निदेशक; श्री हेमंत देशमुख, अध्यक्ष, कौशल विकास और रोजगार सृजन बोर्ड, एमपी; श्री दीपक जोशी, तकनीकी शिक्षा, कौशल विकास और रोजगार मंत्री मप्र; श्री सुखवीर सिंह, मध्य प्रदेश रोजगार सृजन बोर्ड के मुख्य कार्यकारी अधिकारी और श्री विश्वेश कुलकर्णी, अध्यक्ष, यशस्वी अकादमी",

"Office No. 11,First Floor, Satellite Plaza, Ayodhya Bypass,Bhopal, Madhya Pradesh 462041":"ऑफिस नं.11 ,पहली मंजिल ,सॅटेलाइट प्लाजा ,अयोध्या बायपास ,भोपाल, मध्य प्रदेश 462041",
"Yashaswi Academy for Talent Management (On PPP Basis) (Call Centre)":"यशस्वी एकेडमी फ़ोर् टैलेंट मैनेजमेंट (पीपीपी आधार पर) (कॉल सेंटर)",
"Employment service center":"रोजगार सेवा केंद्र",
"Operated by":"संचालित",
"Call Centre Head:":"कॉल सेंटर हेड",
"Public Private Partnership(PPP)":"पब्लिक प्राइवेट पार्टनरशिप (पीपीपी)",
"Add Key Skill":"कुंजी कौशल जोड़ें",



"The MP Rojgar portal has been prepared with the objective of bringing job seekers and employers on a common platform.":"जाॅब सीकर्स एवं नियोजकों को एक ही प्लेटफार्म पर लाने के लिये एम. पी. रोजगार पोर्टल तैयार किया गया है। पोर्टल के माध्यम से जाॅब सीकर्स स्वयं का पंजीयन, प्रोफाईल तैयार करना, रिज्यूम बनाना, रोजगार के अवसरों का चयन एवं उसके लिये आवेदन मात्र कम्प्यूटर पर क्लिक करके कर सकते हैं।",

"The portal allows Job Seekers to register themselves, develop their profile, generate a resume, select employment opportunities, and apply for them on a click of a button.":"पोर्टल पर पंजीकृत नियोजक, रिक्तियां दर्ज कर सकते हैं, आवेदकों को बुला सकते हैं एवं पोर्टल पर पंजीकृत आवेदकों मे से उपयुक्त प्रोफाईल का चुनाव कर सकते हैं।",

"The employers registered on the portal can post vacancies, invite applicants, and identify suitable profiles registered on the portal. Further, the portal will also build a mechanism to schedule interview telephonically or in person.":"पोर्टल पर पंजीकृत आवेदक की प्रोफाईल का उपलब्ध रिक्तियों से मिलान करने की स्वमेव व्यवस्था है।",

"The portal also offers an in-built mechanism of matching a job seeker’s profile with active job opportunities. The system suggests relevant job opportunities to a job seeker registered on the portal.  In addition to this, a job seeker can search for active job opportunities posted on the system using one or more of the following education background, experience and qualification.":"पोर्टल पर इस प्रकार की व्यवस्था है कि पंजीकृत जाॅब सीकर्स के लिये उपलब्ध नौकरियों में से जाॅब सीकर्स प्रोफाईल के अनुसार उपयुक्त नौकरी का पता लग सके। इसके अतिरिक्त शैक्षणिक पृष्ठभूमि अनुभव एवं शैक्षणिक योग्यता में से एक या एक से अधिक मानदंडों के आधार पर पोर्टल पर उपलब्ध नौकरियों में से जाॅब सीकर्स अपने लिये उपयुक्त नौकरी की खोज कर सकते हैं।",
"Public Private Partnership (PPP)":"पब्लिक प्राइवेट पार्टनरशिप (पीपीपी)",
"Image description:":"चित्र का वर्णन:",
"About Public Private Partnership (PPP) Project.":"पब्लिक प्राइवेट पार्टनरशिप (पीपीपी) प्रोजेक्ट के बारे में।",
"Yashaswi Academy for Talent Management, a Company incorporated under Section 8 of the Companies Act 1956 and having its registered office at 7, Amit Court, CTS 95 A, Shivajinagar, and Pune 411005 herein after referred to as “YASHASWI”. Since inception we are providing the most reliable, prompt, and accountable and simplified services to our clients. We have acquired experience of last 35 Years in understanding the dynamics of attracting quality candidates and identifying the key attributes needed for the clients as per the job role requirements.":"यशस्वी अकादमी फॉर टैलेंट मैनेजमेंट, एक कंपनी कंपनी अधिनियम 1956 की धारा 8 के तहत निगमित और 7, अमित कोर्ट, सीटीएस 95 ए, शिवाजीनगर, और पुणे 411005 में अपना पंजीकृत कार्यालय होने के बाद 'यशस्वी' के रूप में संदर्भित किया गया। स्थापना के बाद से हम अपने ग्राहकों को सबसे विश्वसनीय, त्वरित और जवाबदेह और सरलीकृत सेवाएं प्रदान कर रहे हैं। हमने गुणवत्ता वाले उम्मीदवारों को आकर्षित करने और नौकरी की भूमिका आवश्यकताओं के अनुसार ग्राहकों के लिए आवश्यक प्रमुख विशेषताओं की पहचान करने की गतिशीलता को समझने में पिछले 35 वर्षों का अनुभव प्राप्त किया है।",
"On 9th May 2018, the Government of Madhya Pradesh through Commissioner of Employment, Madhya Pradesh State Skill Development & Employment Generation Board (MPSSDEGB) has awarded Yashaswi the Contract of Up-gradation and Modernization of Employment Exchanges into Placement Centers in the State of Madhya Pradesh on Public Private Partnership (PPP) Basis for a period of 10 years. The Commissioner of Employment, Directorate of Employment, 6th Floor, Vindhyachal Bhavan, Bhopal, Madhya Pradesh has signed the MoU with  M/s.Yashaswi Academy for Talent Management Pvt. Ltd, Pune a project which is a first project of its kind in the Country wherein the District Employment Exchanges in 15 Districts ( Bhopal, Hoshangabad, Rewa, Satna, Singrauli, Gwalior, Jabalpur, Indore, Dewas, Dhar, Ujjain, Khargaon, Sagar, Katni, Shahdol ) has been handed over to Yashaswi for Up-gradation & Modernization and to operate as state of art placement centres.":"9 मई 2018 को, मध्य प्रदेश सरकार ने आयुक्त, मध्य प्रदेश राज्य कौशल विकास और रोजगार सृजन बोर्ड (एमपीएसएसडीईजीबी) के माध्यम से यशस्वि को मध्य प्रदेश राज्य में प्लेसमेंट केंद्रों के अपग्रेडेशन और आधुनिकीकरण के अनुबंधों के अनुबंध से सम्मानित किया है। 10 साल की अवधि के लिए सार्वजनिक निजी भागीदारी (पीपीपी) आधार पर। रोजगार आयुक्त, रोजगार निदेशालय, 6 वीं मंजिल, विंध्याचल भवन, भोपाल, मध्यप्रदेश ने टैलेंट मैनेजमेंट प्राइवेट लिमिटेड के लिए एम / एस। यशस्वी अकादमी के साथ समझौता ज्ञापन पर हस्ताक्षर किए हैं। Ltd, पुणे एक परियोजना है जो देश में अपनी तरह की पहली परियोजना है जिसमें 15 जिलों (भोपाल, होशंगाबाद, रीवा, सतना, सिंगरौली, ग्वालियर, जबलपुर, इंदौर, देवास, धार, उज्जैन, खरगाँव, सागर में जिला रोजगार कार्यालय हैं) , कटनी, शहडोल) को उप-उन्नयन और आधुनिकीकरण के लिए यशस्वी को सौंप दिया गया है और राज्य के कला प्लेसमेंट केंद्रों के रूप में संचालित करने के लिए।",
"As part of the project Yashaswi has set up well equipped and adequately staffed modernized placement centres with technology and expert staff in to all the specified district employment exchanges. Yashaswi shall provide services to job seekers in private sector with placement support, career counselling, soft skills training & orientation etc as per the latest market trends. Yashaswi shall also provide online facility for jobseekers to do registrations & renewals.":"परियोजना के भाग के रूप में, यशस्वि ने सभी निर्दिष्ट जिला रोजगार एक्सचेंजों में प्रौद्योगिकी और विशेषज्ञ कर्मचारियों के साथ अच्छी तरह से सुसज्जित और पर्याप्त रूप से प्रशिक्षित आधुनिकीकृत प्लेसमेंट केंद्र स्थापित किए हैं। यशस्वि निजी क्षेत्र में नौकरी चाहने वालों को प्लेसमेंट सपोर्ट, करियर काउंसलिंग, सॉफ्ट स्किल ट्रेनिंग और ओरिएंटेशन आदि के साथ नवीनतम बाजार के रुझान के अनुसार सेवाएं प्रदान करेगा। यशस्वि भी पंजीकरण और नवीनीकरण करने के लिए नौकरी करने वालों के लिए ऑनलाइन सुविधा प्रदान करेगा।",
"For Employers, Yashaswi shall provide door step services into Placement of Candidates, shall act as a match making point between the Job seekers and the Potential Employers. Shall conduct Job fairs at its premises and as required by the employers across Madhya Pradesh to ensure that the Employers get the right candidates for the right job.":"नियोक्ताओं के लिए, यशस्वि उम्मीदवार के प्लेसमेंट में दरवाजा कदम सेवाएं प्रदान करेगा, नौकरी चाहने वालों और संभावित नियोक्ताओं के बीच एक मैच मेकिंग बिंदु के रूप में कार्य करेगा। मध्यप्रदेश भर के नियोक्ताओं द्वारा आवश्यकतानुसार अपने परिसर में जॉब फेयर आयोजित किया जाए ताकि यह सुनिश्चित हो सके कि नियोक्ताओं को सही नौकरी के लिए सही उम्मीदवार मिलें।",
"Information services":"जानकारी सेवाएँ",
"Enquiry Services – Job seekers & Employers":"पूछताछ सेवाएँ - नौकरी चाहने वाले और नियोक्ता",
"Registration & Renewal Services for Candidates & Employers into the Employment Exchange data base":"रोजगार विनिमय डेटा आधार में उम्मीदवारों और नियोक्ताओं के लिए पंजीकरण और नवीकरण सेवाएँ",
"Online Career Counseling – Text chat based, Voice based, video Based":"ऑनलाइन कैरियर काउंसलिंग - पाठ आधारित, वॉयस आधारित, वीडियो आधारित",
"Grievances & Resolution":"शिकायतें और समाधान",
 "Job Vacancy details":"नौकरी रिक्ति विवरण",
"SMS & Email alerts, Upcoming Job fairs etc.":"एसएमएस और ईमेल अलर्ट, आगामी नौकरी मेले आदि",
"Yashaswi has built a state of art Job portal wherein Jobseekers & Employers can register and get various services as under:":"यशस्वि ने एक आर्ट ऑफ़ आर्ट जॉब पोर्टल बनाया है, जिसमें जॉबसेकर और एम्प्लॉयर निम्न सेवाओं को पंजीकृत कर सकते हैं:",
"As part of the said project Yashaswi has built a state of art call centre for employment services at Bhopal. The Call centre shall provide online facilities to the job seekers & employers across the state with a toll free number. The other services the call centre shall provide is as under.":"उक्त परियोजना के भाग के रूप में यशस्वि ने भोपाल में रोजगार सेवाओं के लिए कला कॉल सेंटर का एक राज्य बनाया है। कॉल सेंटर टोल फ्री नंबर के साथ राज्य भर में नौकरी चाहने वालों और नियोक्ताओं को ऑनलाइन सुविधाएं प्रदान करेगा। कॉल सेंटर द्वारा प्रदान की जाने वाली अन्य सेवाएं इस प्रकार हैं",
"In an era where most of the organizations are driven by achieving success, Yashaswi looks at success differently. It believes in shaping success stories of the underprivileged yet deserving people primarily from the rural areas. At Yashaswi, shaping these success stories has been a duty towards society, a responsibility towards skill development and an opportunity to contribute towards nation building by empowering the youth with industry – ready skill sets.":"एक ऐसे युग में जहाँ अधिकांश संगठन सफलता प्राप्त करके संचालित होते हैं, यशस्वि सफलता को अलग तरह से देखता है। यह मुख्य रूप से ग्रामीण क्षेत्रों के लोगों के लिए अभी तक वंचितों की सफलता की कहानियों को आकार देने में विश्वास करता है। यशस्वि में, इन सफलता की कहानियों को आकार देना समाज के प्रति एक कर्तव्य है, कौशल विकास के प्रति एक जिम्मेदारी है और उद्योग के साथ युवाओं को सशक्त बनाने के लिए राष्ट्र निर्माण में योगदान करने का अवसर है - तैयार कौशल सेट।",
"MoU signing ceremony at Vallabh Bhavan between Directorate of Employment & Yashaswi Academy for Talent Management (PPP Partner) Upgradation & Modernisation of Employment Exchanges into Placement Centres in Madhya Pradesh.":"तालु प्रबंधन निदेशालय (पीपीपी पार्टनर) के लिए वल्लभ भवन में एमओयू पर हस्ताक्षर समारोह, पब्लिक प्राइवेट पार्टनरशिप (पीपीपी) आधार पर मध्य प्रदेश में प्लेसमेंट केंद्रों में रोजगार एक्सचेंजों का उन्नयन और आधुनिकीकरण।",
"Online registration of Job seeker & Employer.":"नौकरी चाहने वाले और नियोक्ता का ऑनलाइन पंजीकरण", 
"Automated notifications of job openings basis match making to the job seekers":"नौकरी के उद्घाटन की स्वचालित सूचनाएं नौकरी चाहने वालों के लिए मेल खाते हैं",
"Apply to the jobs available online.":"ऑनलाइन उपलब्ध नौकरियों के लिए आवेदन करें",
 "Generate one page resume for job seeker":"नौकरी चाहने वाले के लिए एक पृष्ठ फिर से शुरू करें",
"Online posting of jobs by employer & view the jobs seeker data, receive the data for the people applied for the jobs online.":"नियोक्ता द्वारा नौकरियों की ऑनलाइन पोस्टिंग और नौकरी चाहने वाले डेटा को देखने, ऑनलाइन नौकरियों के लिए आवेदन किए गए लोगों के लिए डेटा प्राप्त करते हैं।",
 "Information regarding skill training facilities available in Madhya Pradesh":"मध्य प्रदेश में उपलब्ध कौशल प्रशिक्षण सुविधाओं के बारे में जानकारी",
 "Services available for employers in the employer login access dashboard":"नियोक्ता के लिए उपलब्ध सेवाएं लॉगिन लॉगिन डैशबोर्ड में उपलब्ध हैं",
 "Services available for job seekers in the job seeker login access dashboard":"नौकरी चाहने वालों के लिए उपलब्ध सेवाएं साधक लॉगिन एक्सेस डैशबोर्ड में उपलब्ध हैं",
"Information / communication regarding the job fairs, registration to the job fairs, online job fairs.":"नौकरी मेलों के बारे में जानकारी / संचार, नौकरी मेलों के लिए पंजीकरण, ऑनलाइन नौकरी मेलों।", 
"Basic training modules for Job seekers for self-based training programmes.":"स्व-आधारित प्रशिक्षण कार्यक्रमों के लिए नौकरी चाहने वालों के लिए बुनियादी प्रशिक्षण मॉड्यूल।",
"Online Career Counselling, Chat based, Voice based & Video based.":"ऑनलाइन कैरियर परामर्श, चैट आधारित, वॉयस आधारित और वीडियो आधारित।",
"Consumer Durables Chemical.":"उपभोक्ता टिकाऊ रसायन",

"All our 15 Centres are well equipped to handle the following services to the Industry:":"हमारे सभी 15 केंद्र उद्योग के लिए निम्नलिखित सेवाओं को संभालने के लिए अच्छी तरह से सुसज्जित हैं:",
"Recruitment Services.":"भर्ती सेवाएँ।",
"Bulk / Volume Hiring.":"थोक / वॉल्यूम किराए पर लेना।",
"RPO Services.":"आरपीओ सेवाएँ।",
"On demand recruiter model":"मांग पर भर्ती मॉडल",
"Skill & Training Development.":"कौशल और प्रशिक्षण विकास।",
"Sector Specific Hiring":"सेक्टर विशिष्ट किराए पर लेना",
"Yashaswi Academy for Talent Management is not for Profit Company & a Group Company under the umbrella of Yashaswi Group which is engaged in the Human Resources Services, Skill Development & Training Projects, Placement Services, CSR, and Manpower Outsourcing with services pan India in 23 states.":"यशस्वी अकादमी फॉर टैलेंट मैनेजमेंट, यशस्वी ग्रुप की छतरी के नीचे प्रॉफिट कंपनी और एक ग्रुप कंपनी के लिए नहीं है, जो मानव संसाधन सेवा, कौशल विकास और प्रशिक्षण परियोजनाओं, प्लेसमेंट सेवाओं, सीएसआर और 23 राज्यों में पैन इंडिया के लिए मैनपावर आउटसोर्सिंग के लिए लगी हुई है।",
"For the said PPP project a special purpose company Yashaswi Academy for Talent Management Private Ltd has been registered & and has started its operations through the District Employment Exchanges as Placement Centers with its trained manpower in each of the centers.":"उक्त पीपीपी परियोजना के लिए टैलेंट मैनेजमेंट प्राइवेट लिमिटेड के लिए एक विशेष उद्देश्य वाली कंपनी यशस्वि अकादमी को पंजीकृत किया गया है और उसने प्रत्येक केंद्रों में अपने प्रशिक्षित जनशक्ति के साथ प्लेसमेंट सेंटर के रूप में जिला रोजगार कार्यालय के माध्यम से अपना परिचालन शुरू किया है।",
"About Yashaswi Group:":"यशस्वि समूह के बारे में:",
" an era where most of the organizations are driven by achieving success, Yashaswi looks at success differently. It believes in shaping success stories of the underprivileged yet deserving people primarily from the rural areas. At Yashaswi, shaping these success stories has been a duty towards society, a responsibility towards skill development and an opportunity to contribute towards nation building by empowering the youth with industry – ready skill sets.":"एक ऐसे युग में जहाँ अधिकांश संगठन सफलता प्राप्त करके संचालित होते हैं, यशस्वि सफलता को अलग तरह से देखता है। यह मुख्य रूप से ग्रामीण क्षेत्रों के लोगों के लिए अभी तक वंचितों की सफलता की कहानियों को आकार देने में विश्वास करता है। यशस्वि में, इन सफलता की कहानियों को आकार देना समाज के प्रति एक कर्तव्य है, कौशल विकास के प्रति एक जिम्मेदारी है और उद्योग के साथ युवाओं को सशक्त बनाने के लिए राष्ट्र निर्माण में योगदान करने का अवसर है - तैयार कौशल सेट।",
"Founded in 1981, Yashaswi Group started its journey with Placement Services where job seeking individuals were given assistance to find relevant jobs in the Industries. Understanding the industry needs of manpower with specific skills, Yashaswi ventured into devising industry specific training programmes. This allowed Yashaswi to develop a unique industry network, while enhancing its own reputation of executing need specific skill training programs.":"1981 में स्थापित, यशस्वि समूह ने प्लेसमेंट सेवाओं के साथ अपनी यात्रा शुरू की, जहां उद्योगों में प्रासंगिक नौकरियों को खोजने के लिए व्यक्तियों को नौकरी दी गई थी। विशिष्ट कौशल के साथ जनशक्ति की उद्योग की जरूरतों को समझते हुए, यशस्वि ने उद्योग के विशिष्ट प्रशिक्षण कार्यक्रमों को विकसित किया। इसने यशस्वि को एक अद्वितीय उद्योग नेटवर्क विकसित करने की अनुमति दी, जबकि निष्पादन की अपनी प्रतिष्ठा को बढ़ाने के लिए विशिष्ट कौशल प्रशिक्षण कार्यक्रमों की आवश्यकता है।",
"To take the benefits of skill training to more and more underprivileged students, Yashaswi started educational institutes that offered courses in different management & technical skills. Today, through more than 13 institutes and a host of programs, more than 50,000 students have crafted their success stories and around 100,000 candidates have been placed into various industry sectors. It has also launched special learning programmes like Learn & Earn, RMSA, and Kaushalya Setu and has been appointed by the government as third party aggregators in National Level Programs like NEEM, Apprenticeship Development etc.":"अधिक से अधिक वंचित छात्रों को कौशल प्रशिक्षण का लाभ लेने के लिए, यशस्वि ने विभिन्न संस्थानों और तकनीकी कौशल में पाठ्यक्रमों की पेशकश करने वाले शैक्षिक संस्थानों की शुरुआत की। आज, 13 से अधिक संस्थानों और कार्यक्रमों की मेजबानी के माध्यम से, 50,000 से अधिक छात्रों ने अपनी सफलता की कहानियां गढ़ी हैं और लगभग 100,000 उम्मीदवारों को विभिन्न उद्योग क्षेत्रों में रखा गया है। इसने लर्निंग एंड अर्न, आरएमएसए और कौशल्या सेतु जैसे विशेष शिक्षण कार्यक्रम भी शुरू किए हैं और सरकार द्वारा एनईईएम, अपरेंटिसशिप डेवलपमेंट आदि जैसे राष्ट्रीय स्तर के कार्यक्रमों में तीसरे पक्ष के एग्रीगेटर के रूप में नियुक्त किए गए हैं।",
"All this while, Yashaswi has created a reputation of delivering what the Industry needs. This  has seen the group be associated with more  than 650+ reputed and emerging industry names, across the fields of Manufacturing &  Engineering , Pharma, Supply Chain & Logistics, Healthcare,  Banking & Finance, Food, Retail, Insurance  and many more.":"यह सब करते हुए, यशस्वि ने उद्योग की जरूरत को पूरा करने के लिए एक प्रतिष्ठा बनाई है। यह समूह विनिर्माण और इंजीनियरिंग, फार्मा, आपूर्ति श्रृंखला और रसद, हेल्थकेयर, बैंकिंग और वित्त, खाद्य, खुदरा, बीमा और कई क्षेत्रों में 650 से अधिक प्रतिष्ठित और उभरते उद्योग नामों से जुड़ा हुआ है।",
"At the same time, Yashaswi has expanded its presence to 23 States. Many government agencies had recognized the efforts by Yashaswi and offered affiliation to different institutes and courses. All this things are sure to create may more success stories, across India.":"इसी समय, यशस्वि ने 23 राज्यों में अपनी उपस्थिति का विस्तार किया है। कई सरकारी एजेंसियों ने यशस्वि के प्रयासों को मान्यता दी थी और विभिन्न संस्थानों और पाठ्यक्रमों से संबद्धता की पेशकश की थी। यह सभी चीजें भारत भर में और अधिक सफलता की कहानियां बनाने के लिए निश्चित हैं।",
"Yashaswi Group Operates Pan India with following Business Verticals:":"यशस्वी ग्रुप ने बिजनेस वर्टिकल के साथ पैन इंडिया का संचालन किया:",
"Placement Services.":"प्लेसमेंट सेवाएँ।",
"Skill Development & Training Projects":"कौशल विकास और प्रशिक्षण परियोजनाएँ",
"Government Projects":"सरकारी परियोजनाएँ",
"NEEM Scheme of AICTE":"एआईसीटीई की NEEM योजना",
"Apprenticeship Scheme as TPA":"टीपीए के रूप में शिक्षुता योजना",
"Manpower Outsourcing Services":"जनशक्ति आउटसोर्सिंग सेवाएँ",
"CSR Projects":"सीएसआर प्रोजेक्ट्स",
"PPP projects with various State Governments":"विभिन्न राज्य सरकारों के साथ पीपीपी परियोजनाएं",
"Technical & Management Education":"तकनीकी और प्रबंधन शिक्षा",

"I am a student of B.Com. (pass) final year DU. I want to take up MCA after graduation .Am I eligible to do it from universities like DU.JNU.KU. Roorkee University etc? I had maths till 10+2 but not at the graduation level. Please advice me which universities can I apply to and what are the job opportunities?":"मैं बी.कॉम का छात्र हूँ। (उत्तीर्ण करना) अंतिम वर्ष डीयू। मैं ग्रेजुएशन के बाद एमसीए करना चाहता हूं यह करने के लिए DU.JNU.KU जैसे विश्वविद्यालयों से। रुड़की विश्वविद्यालय आदि? मैं 10 + 2 तक गणित था लेकिन स्नातक स्तर पर नहीं। कृपया सलाह दें मुझे कौन से विश्वविद्यालय में आवेदन कर सकते हैं और नौकरी क्या हैं अवसरों?",
"I am keen on taking a course in mass communication .Could you please suggest what course can I take ? Is there an age bar or eligibility conditions ? What are the job opportunities before/behind camera? Is it worth doing from IGNOU?":"मैं मास कम्युनिकेशन में कोर्स करने का इच्छुक हूँ। क्या आप कृपया मुझे सुझाव दे सकते हैं कि मैं क्या कोर्स ले सकता हूँ? क्या कोई आयु सीमा या पात्रता की शर्तें हैं? कैमरे के आगे / पीछे नौकरी के अवसर क्या हैं? क्या यह इग्नू से करने लायक है?",

"I had English (Hons) in Ist BA. But Ido not Know what fields are open to me after Graduation. Please suggest.":"मेरे पास बीए में अंग्रेजी (ऑनर्स) थी। लेकिन बर्ड्स को पता नहीं है कि ग्रेजुएशन के बाद मेरे लिए कौन से क्षेत्र खुले हैं। कृपया सुझाव दे।",
"I am a Ist divisioner ISC (PCM) currently doing BA (history) as a regular candidate. I am also doing BCA from IGNOU and BE via correspondence. Please suggest in which subject should I pursue engineering and what about job placement.":"मैं एक नियमित अभ्यर्थी के रूप में वर्तमान में बीए (इतिहास) कर रहा एक आईआईएस डिवीजनर आईएससी (पीसीएम) हूं। मैं पत्राचार के माध्यम से इग्नू और बीई से बीसीए भी कर रहा हूं। कृपया सुझाव दें कि मुझे किस विषय में इंजीनियरिंग करना चाहिए और नौकरी के बारे में क्या करना चाहिए।",

"There are plenty of career opportunities open to English (honours) graduates. You can take a professional diploma/degree courses in journalism, publishing or mass communication(TV & films, advertising, PR).Alternatively you can also opt for corporate communications, script writing fashion, airlines /cabin crew ,event management, etc. If you are very academically-inclined teaching could be perfect for you. However first try and figure out your aptitude and what career would suit you the most.":"अंग्रेजी (ऑनर्स) स्नातकों के लिए बहुत सारे कैरियर के अवसर खुले हैं। आप पत्रकारिता, प्रकाशन या जन संचार (टीवी और फिल्मों, विज्ञापन, पीआर) में एक पेशेवर डिप्लोमा / डिग्री पाठ्यक्रम ले सकते हैं। शाश्वत रूप से आप कॉर्पोरेट संचार, स्क्रिप्ट लेखन फैशन, एयरलाइंस / केबिन क्रू, इवेंट मैनेजमेंट आदि के लिए भी विकल्प चुन सकते हैं। आप बहुत ही अकादमिक रूप से इच्छुक शिक्षण आपके लिए एकदम सही हो सकते हैं। हालांकि पहले प्रयास करें और अपनी योग्यता का पता लगाएं और किस करियर में आपको सबसे ज्यादा फायदा होगा।",
"A. Aren’t you handling too many things at the same time? You must choose between history or engineering. And since engineering is a very practical subject ,even the correspondence course would demand a lot of your time. I suggest that you try jfor admission to one of the regular engineering colleges again next year. That gives you a better chance of getting a job.":"क्या आप एक ही समय में बहुत सी चीजों को नहीं संभाल रहे हैं? आपको इतिहास या इंजीनियरिंग में से किसी एक को चुनना होगा। और चूंकि इंजीनियरिंग एक बहुत ही व्यावहारिक विषय है, यहां तक ​​कि पत्राचार पाठ्यक्रम भी आपके समय की बहुत मांग करेगा। मेरा सुझाव है कि आप अगले साल फिर से नियमित रूप से इंजीनियरिंग कॉलेजों में से एक में प्रवेश के लिए प्रयास करें। जो आपको नौकरी पाने का बेहतर मौका देता है।",
"As far as the branches are concerned your choice should depend mainly on your area of interest. Traditionally, electronics and mechanical engineering have been the most popular .And there is maximum scope for jobs in these areas. Computer engineering has also really come up, while telecom engineering is another emerging field that will offer plenty of jobs.":"जहां तक ​​शाखाओं का सवाल है, आपकी पसंद मुख्य रूप से आपकी रुचि के क्षेत्र पर निर्भर होनी चाहिए। परंपरागत रूप से, इलेक्ट्रॉनिक्स और मैकेनिकल इंजीनियरिंग सबसे लोकप्रिय रहे हैं। और इन क्षेत्रों में नौकरियों के लिए अधिकतम गुंजाइश है। कंप्यूटर इंजीनियरिंग भी वास्तव में सामने आई है, जबकि टेलीकॉम इंजीनियरिंग एक अन्य उभरता हुआ क्षेत्र है जो बहुत सारी नौकरियों की पेशकश करेगा।",
"As far as jobs are concerned engineers are mainly employed in the government sector, in public sector organizations in private companies as commissioned officers in the defense service, in research organizations and laboratories as technical experts on engineering projects in banks and financial corporations. An engineer can also set up his own small unit/company or constancy.":"जहां तक ​​नौकरियों के संबंध में इंजीनियर हैं, मुख्य रूप से सरकारी क्षेत्र में कार्यरत हैं, निजी कंपनियों में सार्वजनिक क्षेत्र के संगठनों में रक्षा सेवा में कमीशन अधिकारी, अनुसंधान संगठनों और प्रयोगशालाओं में बैंकों और वित्तीय निगमों में इंजीनियरिंग परियोजनाओं पर तकनीकी विशेषज्ञ के रूप में। एक इंजीनियर अपनी छोटी इकाई / कंपनी या कांस्टेन्सी भी स्थापित कर सकता है।",
"I am a 2nd year student of BA honours (maths) and I am interested in doing MCA. Please suggest me some good Delhi-based institutes for the course.":"मैं बीए ऑनर्स (मैथ्स) का द्वितीय वर्ष का छात्र हूं और एमसीए करने में रुचि रखता हूं। कृपया मुझे पाठ्यक्रम के लिए दिल्ली के कुछ अच्छे संस्थानों का सुझाव दें।",
"MCA is a three-year course that covers predominantly software concepts, tools techniques along with hardware and management subjects.In Delhi the most sought after institutes offering the course are the Jawaharlal Nehru University. You can take Delhi University. You can take the entrance exams when in the final year of college and you need to start preparing immediately after second year exams.":"MCA एक तीन वर्षीय पाठ्यक्रम है जिसमें मुख्य रूप से सॉफ्टवेयर अवधारणाओं, हार्डवेयर और प्रबंधन विषय के साथ टूल तकनीक शामिल हैं। दिल्ली में पाठ्यक्रम की पेशकश करने वाले संस्थानों में सबसे अधिक मांग जवाहरलाल नेहरू विश्वविद्यालय की है। आप दिल्ली विश्वविद्यालय ले सकते हैं। आप कॉलेज के अंतिम वर्ष में प्रवेश परीक्षा दे सकते हैं और आपको दूसरे वर्ष की परीक्षा के तुरंत बाद तैयारी शुरू करनी होगी।",
"I am appearing for Bcom (final)and want to do MBA.But I have some queries:":"मैं बीकॉम (फाइनल) के लिए उपस्थित हो रहा हूं और एमबीए करना चाहता हूं। लेकिन मेरे कुछ प्रश्न हैं:",
"What is the difference between MAT and CAT?":"MAT और CAT में क्या अंतर है?",
"How much percentage in graduation is needed for admission in a good institute?":"एक अच्छे संस्थान में प्रवेश के लिए स्नातक में कितने प्रतिशत की आवश्यकता है?",
"Suggest me some books to prepare for English test in MBA entrnace. ?":"एमबीए एंट्रेंस में अंग्रेजी की परीक्षा की तैयारी के लिए मुझे कुछ पुस्तकों का सुझाव दें। ?",
"MAT is Management Aptitude Test conducted by All India Management Association (AIMA) and CAT is Common Admission Test conducted by IIMs. CAT is for admission to IIMs and the other leading business schools such as MDI, Gurgaon. MAT screens candidates for other national level business schools. Technically you would need a minimum of 50% to get admission in any of the leading business schools. Also there are no separate books to prepare English for MBA entrance. The regular material has sectioned on it too.":"MAT ऑल इंडिया मैनेजमेंट एसोसिएशन (AIMA) द्वारा आयोजित मैनेजमेंट एप्टीट्यूड टेस्ट है और CAT IIM द्वारा आयोजित कॉमन एडमिशन टेस्ट है। कैट आईआईएम और अन्य प्रमुख व्यावसायिक स्कूलों जैसे एमडीआई, गुड़गांव में प्रवेश के लिए है। एमएटी अन्य राष्ट्रीय स्तर के बिजनेस स्कूलों के लिए स्क्रीन उम्मीदवार। तकनीकी रूप से आपको किसी भी अग्रणी बिजनेस स्कूल में प्रवेश पाने के लिए न्यूनतम 50% की आवश्यकता होगी। साथ ही एमबीए के प्रवेश के लिए अंग्रेजी तैयार करने के लिए कोई अलग से किताबें नहीं हैं। नियमित सामग्री ने इस पर भी काम किया है।",
"I want to do MBA but I am confused from where should I do it. I have done Bcom (P). I want to Know if XLRI conducts part-time MBA .When does the institute hold its entrance examinations?":"मैं एमबीए करना चाहता हूं लेकिन मुझे भ्रम है कि मुझे यह कहां से करना चाहिए। मैंने बीकॉम (पी) किया है। मैं जानना चाहता हूं कि क्या एक्सएलआरआई अंशकालिक एमबीए आयोजित करता है। संस्थान कब अपनी प्रवेश परीक्षा आयोजित करता है",
"If you have done a three-year Bcom (P) and if your final aggregate percentage is 50+,then with a good amount of preparation you should be able to do MBA from any of the leading business schools in the country. This is the right time to keep looking at the daily newspapers for announcements for admissions. Yes XLRI does conduct a part-time MBA but it is of three years duration and meant for only the working executives with sufficient experience to see them through the programme. The XLRI admissions test is, usually the first Sunday of the year.":"यदि आपने तीन-वर्षीय Bcom (P) किया है और यदि आपका अंतिम कुल प्रतिशत 50 + है, तो अच्छी तैयारी के साथ आपको देश के किसी भी प्रमुख बिजनेस स्कूल से MBA करने में सक्षम होना चाहिए। प्रवेश के लिए घोषणाओं के लिए दैनिक समाचार पत्रों को देखते रहने का यह सही समय है। हाँ XLRI एक अंशकालिक MBA आयोजित करता है, लेकिन यह तीन साल की अवधि का होता है और केवल काम करने वाले अधिकारियों के लिए पर्याप्त अनुभव के साथ कार्यक्रम के माध्यम से उन्हें देखने के लिए होता है। XLRI प्रवेश परीक्षा, आमतौर पर वर्ष का पहला रविवार होता है।",
"I am a commerce graduate and want to do a course in gemology. Please advise.?":"मैं कॉमर्स ग्रेजुएट हूं और जेमोलॉजी में कोर्स करना चाहता हूं। कृपया सलाह दें ?",
"There are several institutes offering courses in gemology and jewelry designing which range in duration and intensity from two-three months to one-two years. Prominent institutes are the Gems and Jewelry Export Prominent Council, Jaipur; the Geological institute of India, Mumbai; Jewellery Product Development Centre (New Delhi and Mumbai) Indian Diamond institute, Surat; SG Jhaveri Centre for Diamond Technology. Mumbai; the National Institute of Fashion Technology, New Delhi; South Delhi polytechnic for Women New Delhi.":"कई संस्थानों में जेमोलॉजी और ज्वेलरी डिजाइनिंग के कोर्स हैं जो दो-तीन महीने से लेकर एक-दो साल तक की अवधि के होते हैं। प्रमुख संस्थान रत्न और आभूषण निर्यात प्रमुख परिषद, जयपुर हैं; भारतीय भूवैज्ञानिक संस्थान, मुंबई; आभूषण उत्पाद विकास केंद्र (नई दिल्ली और मुंबई) भारतीय हीरा संस्थान, सूरत; एसजी झावेरी सेंटर फॉर डायमंड टेक्नोलॉजी। मुंबई; राष्ट्रीय फैशन प्रौद्योगिकी संस्थान, नई दिल्ली; महिलाओं के लिए दक्षिण दिल्ली पॉलिटेक्निक नई दिल्ली।",
"Most of these are under graduate courses available at the certificate and diploma level. Some institutions do offer post graduation diploma courses also. The scope in this field is extremely bright. And professionals in these areas are much sought after as well as very highly paid today.":"इनमें से अधिकांश प्रमाण पत्र और डिप्लोमा स्तर पर उपलब्ध स्नातक पाठ्यक्रमों के अंतर्गत हैं। कुछ संस्थान पोस्ट ग्रेजुएशन डिप्लोमा कोर्स भी कराते हैं। इस क्षेत्र में गुंजाइश बेहद उज्ज्वल है। और इन क्षेत्रों में पेशेवरों की बहुत मांग है और साथ ही आज बहुत अधिक भुगतान किया जाता है।",
"I am a graduate in Zoology (Hons). Now I want to do a good computer course .I have heard about”medical transcription” Will it be good for me? What is its scope in India? I want to do PGDMT. Please suggest some leading institutes. ?":"मैं जूलॉजी (ऑनर्स) में स्नातक हूं। अब मैं एक अच्छा कंप्यूटर कोर्स करना चाहता हूं। मैंने 'मेडिकल ट्रांसक्रिप्शन' के बारे में सुना है क्या यह मेरे लिए अच्छा होगा? भारत में इसका दायरा क्या है? मैं पीजीडीएमटी करना चाहता हूं। कृपया कुछ प्रमुख संस्थानों का सुझाव दें। ?",
"In India, medical transcription(MT) is the fastest growing among all IT-enabled services. It basically refers to transcribing medical records. India is a preferred outsourcing station for IT firms in the US for medical transcription. A certificate course in Mt is mainly of 4 months duration. All graduates/doctors/nurses/paramedics are eligible for doing this course. A working knowledge of computers, coupled with a good command over English and a reasonable understanding of medical terminology are important requisites for doing this course. Prominent institutes;":"भारत में, सभी आईटी-सक्षम सेवाओं में मेडिकल ट्रांसक्रिप्शन (एमटी) सबसे तेजी से बढ़ रहा है। यह मूल रूप से मेडिकल रिकॉर्ड को ट्रांसक्रिप्ट करने को संदर्भित करता है। भारत मेडिकल ट्रांसक्रिप्शन के लिए अमेरिका में आईटी फर्मों के लिए एक पसंदीदा आउटसोर्सिंग स्टेशन है। माउंट में एक सर्टिफिकेट कोर्स मुख्य रूप से 4 महीने की अवधि का है। सभी स्नातक / डॉक्टर / नर्स / पैरामेडिक्स इस कोर्स को करने के लिए पात्र हैं। कंप्यूटर का एक कामकाजी ज्ञान, अंग्रेजी पर एक अच्छी कमांड के साथ मिलकर और चिकित्सा शब्दावली की एक उचित समझ इस कोर्स को करने के लिए महत्वपूर्ण आवश्यकताएं हैं। प्रमुख संस्थान;",
"Pan-American Institute of Medical Transcription New Delhi":"पैन-अमेरिकन इंस्टीट्यूट ऑफ मेडिकल ट्रांसक्रिप्शन नई दिल्ली",
"Info-American Academy of Medical Transcription ,New Delhi":"इंफो-अमेरिकन एकेडमी ऑफ मेडिकल ट्रांसक्रिप्शन, नई दिल्ली",
"KG Informatics Systems (Pvt) Ltd. Coimbatore":"KG Informatics Systems (Pvt) Ltd. कोयम्बटूर",
"Indian Institute of Medical Transcription (Pvt) Ltd. Coinmbatore.":"इंडियन इंस्टीट्यूट ऑफ मेडिकल ट्रांसक्रिप्शन (प्राइवेट) लिमिटेड कॉइनमबटोर।",
"Mass communication includes dissemination of news, information, entertainment and public messages to a large section of the masses. Radio, television ,film ,journalism, advertising are the main mediums. There could be several options but you first need to identify what field interests you the most . Courses are generally available at the -graduate level, though Delhi University also offers a bachelor’s degree in journalism .Jaima Millia Islamia offers an MA ,which includes television ,film video and print journalism ,while the Indian Institute of Mass Communication offers a PG diploma. At some DU colleges- such as Kamala Nehru and Delhi college of Arts & Commerce –advertising is also offered as a BA integrated course which includes modules in sales & marketing. Like wise , Indra Prastha College offers a BA in Mass Communications, While Makhanlal Chatturvedi Rashtriya Patrakarita Visvavidyalaya, Bhopal offers both BA and MA level courses .There is no specified upper age limit. Although IGNOU and other open universities do offer mass communications ,It is advisable to do a regular course as there is lot of practical training involved that cannot be done through correspondence.":"जनसंचार में समाचारों, सूचनाओं, मनोरंजन और सार्वजनिक संदेशों के प्रसार से लेकर जनता के एक बड़े वर्ग तक शामिल हैं। रेडियो, टेलीविजन, फिल्म, पत्रकारिता, विज्ञापन मुख्य माध्यम हैं। कई विकल्प हो सकते हैं लेकिन आपको सबसे पहले यह पहचानने की जरूरत है कि आपको किस क्षेत्र में सबसे ज्यादा दिलचस्पी है। पाठ्यक्रम आमतौर पर स्नातक स्तर पर उपलब्ध होते हैं, हालांकि दिल्ली विश्वविद्यालय पत्रकारिता में स्नातक की डिग्री भी प्रदान करता है। जायमा मिलिया इस्लामिया एक एमए प्रदान करता है, जिसमें टेलीविजन, फिल्म वीडियो और प्रिंट पत्रकारिता शामिल है, जबकि इंडियन इंस्टीट्यूट ऑफ मास कम्युनिकेशन एक पीजी डिप्लोमा प्रदान करता है। डीयू के कुछ कॉलेजों- जैसे कि कमला नेहरू और दिल्ली कॉलेज ऑफ आर्ट्स एंड कॉमर्स-एडिटर्स को भी बीए इंटीग्रेटेड कोर्स के रूप में पेश किया जाता है, जिसमें सेल्स और मार्केटिंग के मॉड्यूल शामिल होते हैं। बुद्धिमानों की तरह, इंद्रप्रस्थ कॉलेज मास कम्युनिकेशंस में बीए प्रदान करता है, जबकि माखनलाल चतुर्वेदी राष्ट्रीय चित्रकार विश्व विद्यालय, भोपाल बीए और एमए दोनों स्तर के पाठ्यक्रम प्रदान करता है। कोई निर्दिष्ट ऊपरी शिक्षा सीमा नहीं है। यद्यपि इग्नू और अन्य खुले विश्वविद्यालय बड़े पैमाने पर संचार की पेशकश करते हैं, लेकिन नियमित पाठ्यक्रम करना उचित है क्योंकि इसमें व्यावहारिक प्रशिक्षण शामिल है जो पत्राचार के माध्यम से नहीं किया जा सकता है",
"MCA is a three year course which imparts all software skills and some management’s skills, as well . The entrance exam tests your proficiency in Math’s upto+2or even higher level. though a few institutes, restrict it to class tenth level, DU,JNU and pune University’s entrance exams are the to test to crack .Most are of two hours’ duration and objective type. Some also test reasoning computer fundamentals etc. Since you already had math’s in +2 you are eligible for almost every entrance exam. The minimum eligibility may change from year to year ,but usually they make things easier for the aspirants. Nevertheless ,you need to keep an eye on the advertisement which should start appearing shortly. As far as job prospects go ,they are extremely good since almost every industry is capitalizing on the information explosion and technology penetration.":"MCA एक तीन साल का कोर्स है जो सभी सॉफ्टवेयर स्किल्स और कुछ मैनेजमेंट स्किल्स प्रदान करता है। प्रवेश परीक्षा मैथ्स + 2or में उच्च स्तर तक आपकी दक्षता का परीक्षण करती है। हालांकि कुछ संस्थान, इसे कक्षा दसवीं के स्तर तक सीमित रखते हैं, DU, JNU और प्यून विश्वविद्यालय की प्रवेश परीक्षा को क्रैक करने के लिए परीक्षण करते हैं। अधिकांश दो घंटे की अवधि और उद्देश्य प्रकार के होते हैं। कुछ लोग कंप्यूटर के मूल सिद्धांतों आदि का भी परीक्षण करते हैं, क्योंकि आपके पास पहले से ही गणित की +2 थी और आप लगभग हर प्रवेश परीक्षा के लिए पात्र हैं। न्यूनतम पात्रता वर्ष-दर-वर्ष बदल सकती है, लेकिन आमतौर पर वे एस्पिरेंट्स के लिए चीजों को आसान बनाते हैं। फिर भी, आपको उस विज्ञापन पर नज़र रखने की आवश्यकता है जो शीघ्र ही दिखाई देना शुरू हो जाना चाहिए। जहां तक ​​नौकरी की संभावनाएं हैं, वे बहुत अच्छे हैं क्योंकि लगभग हर उद्योग सूचना विस्फोट और प्रौद्योगिकी पैठ में पूंजी लगा रहा है।",


"DIRECTORATE OF EMPLOYMENT MADHYA PRADESH":"रोजगार संचालनालय मध्य प्रदेश",
"Employment Commissioner":"रोजगार आयुक्त",
"Additional Director Employment":"अपर संचालक रोजगार",
"Joint Director Employment":"संयुक्त संचालक रोजगार",
"Deputy Director/ Sr. Research Officer":"उप संचालक/ वरिष्ठ शोध अधिकारी",
"Assistant Director/ Employment Officer/ Programmer":"सहायक संचालक/ रोजगार अधिकारी/  प्रोग्रामर ",
"Deputy Director/ State Employment Officer Extension Counter Jabalpur":"उप संचालक/ राज्य रोजगार अधिकारी विस्तार पटल जबलपुर",
"Divisional Employment Officer Special Employment Exchange for Differently Abled Persons Jabalpur":"संभागीय रोजगार अधिकारी  दिव्यांगजनों  के लिये विशेष रोजगार कार्यालय जबलपुर",
"Divisional Employment Officer Coaching cum Guidance Center for SC/ ST Ujjain":"संभागीय रोजगार अधिकारी  अनुसूचित जाति/ अनुसूचित जनजाति के लिए कोचिंग कम गाईडेन्स सेंटर ) उज्जैन",
"Deputy Director (Bhopal, Indore, Ujjain, Rewa, Gwalior, Sagar and Jabalpur) District Employment Exchanges 7":"उप संचालक (भोपाल, इन्दौर, उज्जैन, रीवा, ग्वालियर, सागर एवं जबलपुर)  जिला रोजगार कार्यालय 7",
"District Employment Officer District Employment Exchanges 44":"जिला रोजगार अधिकारी  जिला रोजगार कार्यालय 44",
"Employment Officer":"रोजगार अधिकारी",
"Office Staff":"कार्यालयीन कर्मचारी",
"I have done my post graduation in social science and now I am in need of job, kindly guide me what should I do?":"मैंने समाजशास्त्र बिषय में पोस्ट ग्रेजुएशन किया है मुझे जॉब की जरुरत है पर मुझे समझ नहीं आ रहा है की मैं क्या करूँ कृपया मार्गदर्शन करें",
"You can apply in social justice department (samaj kalyan vibhag), hospitals and NGO’s. NGO’s recruit people directly. For government jobs you have to clear relevant exams and interviews as well as you can also prepare yourself for competitive exams in area of your interest.":"आप समाज कल्याण विभाग, हॉस्पिटल एवं NGO में आवेदन कर सकते हैं NGO में आप सीधे आवेदन कर सकते हैं एवं सरकारी विभागों के लिए उस पद से सम्बंधित परीक्षा साक्षात्कार को पास करना पढता है साथ ही साथ आप अपनी रूचि के क्षेत्र से सम्बंधित प्रतियोगी परीक्षा चुनकर उसकी अच्छी तरह से तयारी करके भी नौकरी प्राप्त कर सकते हैं",
"I had completed my master’s in food and nutrition. Now I am worried and confused, I am in need of job and not understanding what to do next. Please suggest.":"मैंने फ़ूड एंड नुट्रिशन बिषय में एमएससी  किया है मुझे जॉब की जरुरत है पर मुझे समझ नहीं आ रहा है की मैं क्या करूँ कृपया बताएं की में क्या करूँ?",
"Do not get worried, have patience. First of all write your resume and submit it in private hospitals and gym of your district. Please do read daily news paper, classifieds and rojgaar nirman then, whenever you find vacancy you can apply for government hospitals.":"आप परेशान न हो धैर्य से काम लो सर्वप्रथम अपना एक बायो डाटा तैयार करें एवं आप जंहा रहते हैं  वंहा के हॉस्पिटल एवं जिम में अपना बायोडाटा दे साथ ही साथ रोजगार निर्माण एवं समाचार पत्र का अध्ययन  करे और जिम एवं शासकीय अस्पतालों में जगह निकलने पर वंहा पर आवेदन करें",
"After doing my graduation in commerce I am pursuing M.com parallel to that I am also giving competitive exams for bank but I am not qualifying, please guide me what to do?":"मैं कॉमर्स से ग्रेजुएशन करने के बाद एमकॉम कर रहा हूँ साथ ही साथ बैंक के एग्जाम भी दे रहा हूँ, लेकिन चयन नहीं हो सका है कृपया बताएं की में क्या करूँ ? ",
"If you had given exam for one or two times and you are not qualified, don’t worry but try to find out the reason for your failure. Sometimes over confidence also results in mistakes. Try to evaluate yourself and look out for the areas and subjects in which you are facing problems to answer correctly. Do think and inspect about every aspect and prepare again with full enthusiasm.":"अगर आपने एक-दो बार परीक्षा दी है और आपका चयन नहीं हो पाया है तो परेशान न हो बल्कि इस बात की तलाश करें की आखिर किस बजह से आपका चयन नहीं हो पाया है कई बार अति आत्मविश्वाश के कारन भी गलतियां हो जाती है स्वयं का आत्म मूल्याङ्कन करें एवं देखें की उक्त परीक्षा में आपको किस विषय में परेशानी हुई जिससे आप उन प्रश्नो के उत्तर ठीक प्रकार से न दे सके सभी बातों पर अच्छी तरह विचार करें एवं पुनः पूरे उत्साह के साथ तैयारी करें",
"Full Name":"पूरा नाम",
"To Renew Registration--->>Click on Renewal Registration":"पंजीकरण नवीनीकृत करने के लिए --- >> नवीनीकरण पंजीकरण पर क्लिक करें",
"Renewal Detail":"नवीकरण विस्तार",
"Next Renew Date":"अगली नवीनीकरण तिथि",


"Job Fair Scheme":"जॉब फेयर स्कीम",
"Job Fair Creation":"जॉब फेयर क्रिएशन",




"Completion Status":"समापन स्थिति",
"EyeSight":"नज़र",
"Sports":"खेल",
"Sport Certificate":"खेल प्रमाण पत्र",
"Declaration:":"घोषणा",
"Current Password":"वर्तमान पासवर्ड",
"Differently Abled Doc":"दिव्यांगता प्रमाण पत्र",
"Handicapped Document":"विकलांग दस्तावेज़",
"Yashaswi Academy for Talent Management, a Company incorporated under Section 8 of the Companies Act 1956 and having its registered office at 7, Amit Court, CTS 95 A, Shivaji Nagar, Pune 411005 herein after referred to as “YASHASWI”. Since inception we are providing the most reliable, prompt and accountable and simplified services to our clients.":"यशस्वी अकादमी फॉर टैलेंट मैनेजमेंट को एक कंपनी, कंपनी अधिनियम 1956 की धारा 8 के तहत निगमित और 7, अमित कोर्ट, सीटीएस 95 ए, शिवाजीनगर, पुणे 411005 में अपना पंजीकृत कार्यालय होने के बाद 'यशस्वी' के रूप में संदर्भित किया गया। स्थापना के बाद से हम अपने ग्राहकों को सबसे विश्वसनीय, त्वरित और जवाबदेह और सरलीकृत सेवाएं प्रदान कर रहे हैं।",
"Yashaswi Academy for Talent Management is a Group Company of Yashaswi Group which is engaged in the Human Resource, Skill Development & in Apprenticeship domain.":"यशस्वी अकादमी फॉर टैलेंट मैनेजमेंट यशस्वी ग्रुप के अंतर्गत एक कम्पनी है जो मानव संसाधन, कौशल विकास और प्रशिक्षुता क्षेत्र में कार्यरत है।",
"We are majorly focusing into –":"हम प्रमुख रूप से केंद्रित कर रहे हैं -",
"Recruitment Services":"भर्ती सेवायें",
"Bulk Hiring":"थोक एवं विशाल भर्ती",
"BPO Services":"बीपीओ सेवाएं",
"Contractual Staffing":"संविदा कर्मचारी",
"Data Management/ Processing":"डेटा प्रबंधन / प्रसंस्करण",
"Technical Education Services":"तकनीकी शिक्षा सेवाएं।",
"Having vast experience of Contractual Staffing, sourcing and placement into various sectors, we offer a full range of services at all levels in different Industries.":"विभिन्न क्षेत्रों में संविदा  स्टाफिंग, सोर्सिंग और प्लेसमेंट का विशाल अनुभव होने के कारण, हम विभिन्न उद्योगों में सभी स्तरों पर सेवाओं की पूरी श्रृंखला प्रस्तावित करते हैं।",
"Recently, on 9th May 2018, the Government of Madhya Pradesh through Commissioner of Employment, Madhya Pradesh Directorate of Employment has awarded Yashaswi the Contract of Upgradation and Modernization of Employment Exchanges into Placement Centers in the State of Madhya Pradesh on Public Private Partnership (PPP) Basis for a period of 10 years.  The Commissioner of Employment, Directorate of Employment, 6th Floor, Vindhyachal Bhavan, Bhopal, Madhya Pradesh has signed with M/s. Yashaswi Academy for Talent Management Pvt Ltd, Pune a project which may be first project of its kind in the Country wherein the District Employment Centers in 15 Districts ( Bhopal, Hoshangabad, Rewa, Satna, Singrauli, Gwalior, Jabalpur, Indore, Dewas, Dhar, Ujjain, Khargone, Sagar, Katni, Shahdol ) shall be run as placement centers.":"हाल ही में,  मध्य प्रदेश शासन के रोजगार कार्यालयों को उन्नयन और आधुनिकीकरण कर प्लेसमेंट केंद्रों के रूप में विकसित करने के लिए जन निजी भागदारी अंतर्गत 09 मई 2018 को रोजगार आयुक्त, रोजगार संचालनालय मध्य प्रदेश और यशस्वी अकादमी फॉर टैलेंट मैनेजमेंट के बीच 10 वर्षों के लिए अनुबंध किया गया है। यशस्वी अकादमी फॉर टैलेंट मैनेजमेंट प्राइवेट लिमिटेड, पुणे देश में अपनी तरह की पहली परियोजना प्रतीत होती है। परियोजनान्तर्गत  15 जिला रोजगार कार्यालय - भोपाल,  होशंगाबाद, रीवा, सतना, सिंगरौली, ग्वालियर, जबलपुर, इंदौर, देवास, धार, उज्जैन, खरगाँव, सागर, कटनी, शहडोल  को प्लेसमेंट केंद्रों के रूप में संचालित किया जायेगा ।",
	
"http://www.ioling.org/images/flags/uk.gif": "http://upload.wikimedia.org/wikipedia/commons/thumb/a/a9/Flag_of_Thailand.svg/1280px-Flag_of_Thailand.svg.png",
		"http://www.google.com/": "http://www.yahoo.com/",
		"lorem" : "ตรงกันข้ามกับความเชื่อที่นิยมกัน Lorem Ipsum ไม่ได้เป็นเพียงแค่ชุดตัวอักษรที่สุ่มขึ้นมามั่วๆ แต่หากมีที่มาจากวรรณกรรมละตินคลาสสิกชิ้นหนึ่งในยุค  ..."
	},
	"regex": [
		["Budget", "งบประมาณ"],
		["^Something at start of text", ""],
		["This will be case insensitive", "i", ""]
	]
}